This is the 1st description line of the EnSight Gold geometry example
This is the 2nd description line of the EnSight Gold geometry example
node id assign
element id assign
extents
 0.00000e+00 1.00000e+00
 0.00000e+00 1.00000e+00
 0.00000e+00 0.00000e+00
part
         1
movie
coordinates
         4
 0.00000e+00
 1.00000e+00
 1.00000e+00
 0.00000e+00
 0.00000e+00
 0.00000e+00
 1.00000e+00
 1.00000e+00
 0.00000e+00
 0.00000e+00
 0.00000e+00
 0.00000e+00
quad4
         1
         1         2         3         4
