frame geometry

node id assign
element id assign
coordinates
     810
 2.75000e+00 0.00000e+00 2.58000e+02
-2.75000e+00 0.00000e+00 2.58000e+02
-2.75000e+00 0.00000e+00 2.70000e+02
 2.75000e+00 0.00000e+00 2.70000e+02
 2.75000e+00 1.37140e+01 2.58000e+02
-2.75000e+00 1.37140e+01 2.58000e+02
-2.75000e+00 1.37140e+01 2.70000e+02
 2.75000e+00 1.37140e+01 2.70000e+02
 2.75000e+00 2.74290e+01 2.58000e+02
-2.75000e+00 2.74290e+01 2.58000e+02
-2.75000e+00 2.74290e+01 2.70000e+02
 2.75000e+00 2.74290e+01 2.70000e+02
 2.75000e+00 4.11430e+01 2.58000e+02
-2.75000e+00 4.11430e+01 2.58000e+02
-2.75000e+00 4.11430e+01 2.70000e+02
 2.75000e+00 4.11430e+01 2.70000e+02
 2.75000e+00 5.48570e+01 2.58000e+02
-2.75000e+00 5.48570e+01 2.58000e+02
-2.75000e+00 5.48570e+01 2.70000e+02
 2.75000e+00 5.48570e+01 2.70000e+02
 2.75000e+00 6.85710e+01 2.58000e+02
-2.75000e+00 6.85710e+01 2.58000e+02
-2.75000e+00 6.85710e+01 2.70000e+02
 2.75000e+00 6.85710e+01 2.70000e+02
 2.75000e+00 8.22860e+01 2.58000e+02
-2.75000e+00 8.22860e+01 2.58000e+02
-2.75000e+00 8.22860e+01 2.70000e+02
 2.75000e+00 8.22860e+01 2.70000e+02
 2.75000e+00 9.60000e+01 2.58000e+02
-2.75000e+00 9.60000e+01 2.58000e+02
-2.75000e+00 9.60000e+01 2.70000e+02
 2.75000e+00 9.60000e+01 2.70000e+02
 2.75000e+00 0.00000e+00 1.80000e+01
-2.75000e+00 0.00000e+00 1.80000e+01
-2.75000e+00 0.00000e+00 3.00000e+01
 2.75000e+00 0.00000e+00 3.00000e+01
 2.75000e+00 1.37140e+01 1.80000e+01
-2.75000e+00 1.37140e+01 1.80000e+01
-2.75000e+00 1.37140e+01 3.00000e+01
 2.75000e+00 1.37140e+01 3.00000e+01
 2.75000e+00 2.74290e+01 1.80000e+01
-2.75000e+00 2.74290e+01 1.80000e+01
-2.75000e+00 2.74290e+01 3.00000e+01
 2.75000e+00 2.74290e+01 3.00000e+01
 2.75000e+00 4.11430e+01 1.80000e+01
-2.75000e+00 4.11430e+01 1.80000e+01
-2.75000e+00 4.11430e+01 3.00000e+01
 2.75000e+00 4.11430e+01 3.00000e+01
 2.75000e+00 5.48570e+01 1.80000e+01
-2.75000e+00 5.48570e+01 1.80000e+01
-2.75000e+00 5.48570e+01 3.00000e+01
 2.75000e+00 5.48570e+01 3.00000e+01
 2.75000e+00 6.85710e+01 1.80000e+01
-2.75000e+00 6.85710e+01 1.80000e+01
-2.75000e+00 6.85710e+01 3.00000e+01
 2.75000e+00 6.85710e+01 3.00000e+01
 2.75000e+00 8.22860e+01 1.80000e+01
-2.75000e+00 8.22860e+01 1.80000e+01
-2.75000e+00 8.22860e+01 3.00000e+01
 2.75000e+00 8.22860e+01 3.00000e+01
 2.75000e+00 9.60000e+01 1.80000e+01
-2.75000e+00 9.60000e+01 1.80000e+01
-2.75000e+00 9.60000e+01 3.00000e+01
 2.75000e+00 9.60000e+01 3.00000e+01
 3.86750e+02 0.00000e+00 2.58000e+02
 3.81250e+02 0.00000e+00 2.58000e+02
 3.81250e+02 0.00000e+00 2.70000e+02
 3.86750e+02 0.00000e+00 2.70000e+02
 3.86750e+02 1.37140e+01 2.58000e+02
 3.81250e+02 1.37140e+01 2.58000e+02
 3.81250e+02 1.37140e+01 2.70000e+02
 3.86750e+02 1.37140e+01 2.70000e+02
 3.86750e+02 2.74290e+01 2.58000e+02
 3.81250e+02 2.74290e+01 2.58000e+02
 3.81250e+02 2.74290e+01 2.70000e+02
 3.86750e+02 2.74290e+01 2.70000e+02
 3.86750e+02 4.11430e+01 2.58000e+02
 3.81250e+02 4.11430e+01 2.58000e+02
 3.81250e+02 4.11430e+01 2.70000e+02
 3.86750e+02 4.11430e+01 2.70000e+02
 3.86750e+02 5.48570e+01 2.58000e+02
 3.81250e+02 5.48570e+01 2.58000e+02
 3.81250e+02 5.48570e+01 2.70000e+02
 3.86750e+02 5.48570e+01 2.70000e+02
 3.86750e+02 6.85710e+01 2.58000e+02
 3.81250e+02 6.85710e+01 2.58000e+02
 3.81250e+02 6.85710e+01 2.70000e+02
 3.86750e+02 6.85710e+01 2.70000e+02
 3.86750e+02 8.22860e+01 2.58000e+02
 3.81250e+02 8.22860e+01 2.58000e+02
 3.81250e+02 8.22860e+01 2.70000e+02
 3.86750e+02 8.22860e+01 2.70000e+02
 3.86750e+02 9.60000e+01 2.58000e+02
 3.81250e+02 9.60000e+01 2.58000e+02
 3.81250e+02 9.60000e+01 2.70000e+02
 3.86750e+02 9.60000e+01 2.70000e+02
 3.86750e+02 0.00000e+00 1.80000e+01
 3.81250e+02 0.00000e+00 1.80000e+01
 3.81250e+02 0.00000e+00 3.00000e+01
 3.86750e+02 0.00000e+00 3.00000e+01
 3.86750e+02 1.37140e+01 1.80000e+01
 3.81250e+02 1.37140e+01 1.80000e+01
 3.81250e+02 1.37140e+01 3.00000e+01
 3.86750e+02 1.37140e+01 3.00000e+01
 3.86750e+02 2.74290e+01 1.80000e+01
 3.81250e+02 2.74290e+01 1.80000e+01
 3.81250e+02 2.74290e+01 3.00000e+01
 3.86750e+02 2.74290e+01 3.00000e+01
 3.86750e+02 4.11430e+01 1.80000e+01
 3.81250e+02 4.11430e+01 1.80000e+01
 3.81250e+02 4.11430e+01 3.00000e+01
 3.86750e+02 4.11430e+01 3.00000e+01
 3.86750e+02 5.48570e+01 1.80000e+01
 3.81250e+02 5.48570e+01 1.80000e+01
 3.81250e+02 5.48570e+01 3.00000e+01
 3.86750e+02 5.48570e+01 3.00000e+01
 3.86750e+02 6.85710e+01 1.80000e+01
 3.81250e+02 6.85710e+01 1.80000e+01
 3.81250e+02 6.85710e+01 3.00000e+01
 3.86750e+02 6.85710e+01 3.00000e+01
 3.86750e+02 8.22860e+01 1.80000e+01
 3.81250e+02 8.22860e+01 1.80000e+01
 3.81250e+02 8.22860e+01 3.00000e+01
 3.86750e+02 8.22860e+01 3.00000e+01
 3.86750e+02 9.60000e+01 1.80000e+01
 3.81250e+02 9.60000e+01 1.80000e+01
 3.81250e+02 9.60000e+01 3.00000e+01
 3.86750e+02 9.60000e+01 3.00000e+01
 3.00000e+00 8.49240e+01 2.86740e+02
-3.00000e+00 8.49240e+01 2.86740e+02
-3.00000e+00 9.74760e+01 2.89260e+02
 3.00000e+00 9.74760e+01 2.89260e+02
 3.00000e+00 8.73240e+01 2.74740e+02
-3.00000e+00 8.73240e+01 2.74740e+02
-3.00000e+00 9.98760e+01 2.77260e+02
 3.00000e+00 9.98760e+01 2.77260e+02
 3.00000e+00 8.97240e+01 2.62740e+02
-3.00000e+00 8.97240e+01 2.62740e+02
-3.00000e+00 1.02280e+02 2.65260e+02
 3.00000e+00 1.02280e+02 2.65260e+02
 3.00000e+00 8.97240e+01 2.62740e+02
-3.00000e+00 8.97240e+01 2.62740e+02
-3.00000e+00 1.02280e+02 2.65260e+02
 3.00000e+00 1.02280e+02 2.65260e+02
 3.00000e+00 9.23910e+01 2.49410e+02
-3.00000e+00 9.23910e+01 2.49410e+02
-3.00000e+00 1.04940e+02 2.51920e+02
 3.00000e+00 1.04940e+02 2.51920e+02
 3.00000e+00 9.50580e+01 2.36080e+02
-3.00000e+00 9.50580e+01 2.36080e+02
-3.00000e+00 1.07610e+02 2.38590e+02
 3.00000e+00 1.07610e+02 2.38590e+02
 3.00000e+00 9.77240e+01 2.22740e+02
-3.00000e+00 9.77240e+01 2.22740e+02
-3.00000e+00 1.10280e+02 2.25260e+02
 3.00000e+00 1.10280e+02 2.25260e+02
 3.00000e+00 1.00390e+02 2.09410e+02
-3.00000e+00 1.00390e+02 2.09410e+02
-3.00000e+00 1.12940e+02 2.11920e+02
 3.00000e+00 1.12940e+02 2.11920e+02
 3.00000e+00 1.03060e+02 1.96080e+02
-3.00000e+00 1.03060e+02 1.96080e+02
-3.00000e+00 1.15610e+02 1.98590e+02
 3.00000e+00 1.15610e+02 1.98590e+02
 3.00000e+00 1.05720e+02 1.82740e+02
-3.00000e+00 1.05720e+02 1.82740e+02
-3.00000e+00 1.18280e+02 1.85260e+02
 3.00000e+00 1.18280e+02 1.85260e+02
 3.00000e+00 1.08390e+02 1.69410e+02
-3.00000e+00 1.08390e+02 1.69410e+02
-3.00000e+00 1.20940e+02 1.71920e+02
 3.00000e+00 1.20940e+02 1.71920e+02
 3.00000e+00 1.11060e+02 1.56080e+02
-3.00000e+00 1.11060e+02 1.56080e+02
-3.00000e+00 1.23610e+02 1.58590e+02
 3.00000e+00 1.23610e+02 1.58590e+02
 3.00000e+00 1.13720e+02 1.42740e+02
-3.00000e+00 1.13720e+02 1.42740e+02
-3.00000e+00 1.26280e+02 1.45260e+02
 3.00000e+00 1.26280e+02 1.45260e+02
 3.00000e+00 1.13720e+02 1.45260e+02
-3.00000e+00 1.13720e+02 1.45260e+02
-3.00000e+00 1.26280e+02 1.42740e+02
 3.00000e+00 1.26280e+02 1.42740e+02
 3.00000e+00 1.11060e+02 1.31920e+02
-3.00000e+00 1.11060e+02 1.31920e+02
-3.00000e+00 1.23610e+02 1.29410e+02
 3.00000e+00 1.23610e+02 1.29410e+02
 3.00000e+00 1.08390e+02 1.18590e+02
-3.00000e+00 1.08390e+02 1.18590e+02
-3.00000e+00 1.20940e+02 1.16080e+02
 3.00000e+00 1.20940e+02 1.16080e+02
 3.00000e+00 1.05720e+02 1.05260e+02
-3.00000e+00 1.05720e+02 1.05260e+02
-3.00000e+00 1.18280e+02 1.02740e+02
 3.00000e+00 1.18280e+02 1.02740e+02
 3.00000e+00 1.03060e+02 9.19220e+01
-3.00000e+00 1.03060e+02 9.19220e+01
-3.00000e+00 1.15610e+02 8.94120e+01
 3.00000e+00 1.15610e+02 8.94120e+01
 3.00000e+00 1.00390e+02 7.85880e+01
-3.00000e+00 1.00390e+02 7.85880e+01
-3.00000e+00 1.12940e+02 7.60780e+01
 3.00000e+00 1.12940e+02 7.60780e+01
 3.00000e+00 9.77240e+01 6.52550e+01
-3.00000e+00 9.77240e+01 6.52550e+01
-3.00000e+00 1.10280e+02 6.27450e+01
 3.00000e+00 1.10280e+02 6.27450e+01
 3.00000e+00 9.50580e+01 5.19220e+01
-3.00000e+00 9.50580e+01 5.19220e+01
-3.00000e+00 1.07610e+02 4.94120e+01
 3.00000e+00 1.07610e+02 4.94120e+01
 3.00000e+00 9.23910e+01 3.85880e+01
-3.00000e+00 9.23910e+01 3.85880e+01
-3.00000e+00 1.04940e+02 3.60780e+01
 3.00000e+00 1.04940e+02 3.60780e+01
 3.00000e+00 8.97240e+01 2.52550e+01
-3.00000e+00 8.97240e+01 2.52550e+01
-3.00000e+00 1.02280e+02 2.27450e+01
 3.00000e+00 1.02280e+02 2.27450e+01
 3.00000e+00 8.97240e+01 2.52550e+01
-3.00000e+00 8.97240e+01 2.52550e+01
-3.00000e+00 1.02280e+02 2.27450e+01
 3.00000e+00 1.02280e+02 2.27450e+01
 3.00000e+00 8.73240e+01 1.32550e+01
-3.00000e+00 8.73240e+01 1.32550e+01
-3.00000e+00 9.98760e+01 1.07450e+01
 3.00000e+00 9.98760e+01 1.07450e+01
 3.00000e+00 8.49240e+01 1.25510e+00
-3.00000e+00 8.49240e+01 1.25510e+00
-3.00000e+00 9.74760e+01-1.25510e+00
 3.00000e+00 9.74760e+01-1.25510e+00
 3.87000e+02 8.49240e+01 2.86740e+02
 3.81000e+02 8.49240e+01 2.86740e+02
 3.81000e+02 9.74760e+01 2.89260e+02
 3.87000e+02 9.74760e+01 2.89260e+02
 3.87000e+02 8.73240e+01 2.74740e+02
 3.81000e+02 8.73240e+01 2.74740e+02
 3.81000e+02 9.98760e+01 2.77260e+02
 3.87000e+02 9.98760e+01 2.77260e+02
 3.87000e+02 8.97240e+01 2.62740e+02
 3.81000e+02 8.97240e+01 2.62740e+02
 3.81000e+02 1.02280e+02 2.65260e+02
 3.87000e+02 1.02280e+02 2.65260e+02
 3.87000e+02 8.97240e+01 2.62740e+02
 3.81000e+02 8.97240e+01 2.62740e+02
 3.81000e+02 1.02280e+02 2.65260e+02
 3.87000e+02 1.02280e+02 2.65260e+02
 3.87000e+02 9.23910e+01 2.49410e+02
 3.81000e+02 9.23910e+01 2.49410e+02
 3.81000e+02 1.04940e+02 2.51920e+02
 3.87000e+02 1.04940e+02 2.51920e+02
 3.87000e+02 9.50580e+01 2.36080e+02
 3.81000e+02 9.50580e+01 2.36080e+02
 3.81000e+02 1.07610e+02 2.38590e+02
 3.87000e+02 1.07610e+02 2.38590e+02
 3.87000e+02 9.77240e+01 2.22740e+02
 3.81000e+02 9.77240e+01 2.22740e+02
 3.81000e+02 1.10280e+02 2.25260e+02
 3.87000e+02 1.10280e+02 2.25260e+02
 3.87000e+02 1.00390e+02 2.09410e+02
 3.81000e+02 1.00390e+02 2.09410e+02
 3.81000e+02 1.12940e+02 2.11920e+02
 3.87000e+02 1.12940e+02 2.11920e+02
 3.87000e+02 1.03060e+02 1.96080e+02
 3.81000e+02 1.03060e+02 1.96080e+02
 3.81000e+02 1.15610e+02 1.98590e+02
 3.87000e+02 1.15610e+02 1.98590e+02
 3.87000e+02 1.05720e+02 1.82740e+02
 3.81000e+02 1.05720e+02 1.82740e+02
 3.81000e+02 1.18280e+02 1.85260e+02
 3.87000e+02 1.18280e+02 1.85260e+02
 3.87000e+02 1.08390e+02 1.69410e+02
 3.81000e+02 1.08390e+02 1.69410e+02
 3.81000e+02 1.20940e+02 1.71920e+02
 3.87000e+02 1.20940e+02 1.71920e+02
 3.87000e+02 1.11060e+02 1.56080e+02
 3.81000e+02 1.11060e+02 1.56080e+02
 3.81000e+02 1.23610e+02 1.58590e+02
 3.87000e+02 1.23610e+02 1.58590e+02
 3.87000e+02 1.13720e+02 1.42740e+02
 3.81000e+02 1.13720e+02 1.42740e+02
 3.81000e+02 1.26280e+02 1.45260e+02
 3.87000e+02 1.26280e+02 1.45260e+02
 3.87000e+02 1.13720e+02 1.45260e+02
 3.81000e+02 1.13720e+02 1.45260e+02
 3.81000e+02 1.26280e+02 1.42740e+02
 3.87000e+02 1.26280e+02 1.42740e+02
 3.87000e+02 1.11060e+02 1.31920e+02
 3.81000e+02 1.11060e+02 1.31920e+02
 3.81000e+02 1.23610e+02 1.29410e+02
 3.87000e+02 1.23610e+02 1.29410e+02
 3.87000e+02 1.08390e+02 1.18590e+02
 3.81000e+02 1.08390e+02 1.18590e+02
 3.81000e+02 1.20940e+02 1.16080e+02
 3.87000e+02 1.20940e+02 1.16080e+02
 3.87000e+02 1.05720e+02 1.05260e+02
 3.81000e+02 1.05720e+02 1.05260e+02
 3.81000e+02 1.18280e+02 1.02740e+02
 3.87000e+02 1.18280e+02 1.02740e+02
 3.87000e+02 1.03060e+02 9.19220e+01
 3.81000e+02 1.03060e+02 9.19220e+01
 3.81000e+02 1.15610e+02 8.94120e+01
 3.87000e+02 1.15610e+02 8.94120e+01
 3.87000e+02 1.00390e+02 7.85880e+01
 3.81000e+02 1.00390e+02 7.85880e+01
 3.81000e+02 1.12940e+02 7.60780e+01
 3.87000e+02 1.12940e+02 7.60780e+01
 3.87000e+02 9.77240e+01 6.52550e+01
 3.81000e+02 9.77240e+01 6.52550e+01
 3.81000e+02 1.10280e+02 6.27450e+01
 3.87000e+02 1.10280e+02 6.27450e+01
 3.87000e+02 9.50580e+01 5.19220e+01
 3.81000e+02 9.50580e+01 5.19220e+01
 3.81000e+02 1.07610e+02 4.94120e+01
 3.87000e+02 1.07610e+02 4.94120e+01
 3.87000e+02 9.23910e+01 3.85880e+01
 3.81000e+02 9.23910e+01 3.85880e+01
 3.81000e+02 1.04940e+02 3.60780e+01
 3.87000e+02 1.04940e+02 3.60780e+01
 3.87000e+02 8.97240e+01 2.52550e+01
 3.81000e+02 8.97240e+01 2.52550e+01
 3.81000e+02 1.02280e+02 2.27450e+01
 3.87000e+02 1.02280e+02 2.27450e+01
 3.87000e+02 8.97240e+01 2.52550e+01
 3.81000e+02 8.97240e+01 2.52550e+01
 3.81000e+02 1.02280e+02 2.27450e+01
 3.87000e+02 1.02280e+02 2.27450e+01
 3.87000e+02 8.73240e+01 1.32550e+01
 3.81000e+02 8.73240e+01 1.32550e+01
 3.81000e+02 9.98760e+01 1.07450e+01
 3.87000e+02 9.98760e+01 1.07450e+01
 3.87000e+02 8.49240e+01 1.25510e+00
 3.81000e+02 8.49240e+01 1.25510e+00
 3.81000e+02 9.74760e+01-1.25510e+00
 3.87000e+02 9.74760e+01-1.25510e+00
 1.95000e+02 9.04110e+01 2.62880e+02
 1.89000e+02 9.04110e+01 2.62880e+02
 1.89000e+02 1.01590e+02 2.65120e+02
 1.95000e+02 1.01590e+02 2.65120e+02
 1.95000e+02 9.30770e+01 2.49550e+02
 1.89000e+02 9.30770e+01 2.49550e+02
 1.89000e+02 1.04260e+02 2.51780e+02
 1.95000e+02 1.04260e+02 2.51780e+02
 1.95000e+02 9.57440e+01 2.36220e+02
 1.89000e+02 9.57440e+01 2.36220e+02
 1.89000e+02 1.06920e+02 2.38450e+02
 1.95000e+02 1.06920e+02 2.38450e+02
 1.95000e+02 9.84110e+01 2.22880e+02
 1.89000e+02 9.84110e+01 2.22880e+02
 1.89000e+02 1.09590e+02 2.25120e+02
 1.95000e+02 1.09590e+02 2.25120e+02
 1.95000e+02 1.01080e+02 2.09550e+02
 1.89000e+02 1.01080e+02 2.09550e+02
 1.89000e+02 1.12260e+02 2.11780e+02
 1.95000e+02 1.12260e+02 2.11780e+02
 1.95000e+02 1.03740e+02 1.96220e+02
 1.89000e+02 1.03740e+02 1.96220e+02
 1.89000e+02 1.14920e+02 1.98450e+02
 1.95000e+02 1.14920e+02 1.98450e+02
 1.95000e+02 1.06410e+02 1.82880e+02
 1.89000e+02 1.06410e+02 1.82880e+02
 1.89000e+02 1.17590e+02 1.85120e+02
 1.95000e+02 1.17590e+02 1.85120e+02
 1.95000e+02 1.09080e+02 1.69550e+02
 1.89000e+02 1.09080e+02 1.69550e+02
 1.89000e+02 1.20260e+02 1.71780e+02
 1.95000e+02 1.20260e+02 1.71780e+02
 1.95000e+02 1.11740e+02 1.56220e+02
 1.89000e+02 1.11740e+02 1.56220e+02
 1.89000e+02 1.22920e+02 1.58450e+02
 1.95000e+02 1.22920e+02 1.58450e+02
 1.95000e+02 1.14410e+02 1.42880e+02
 1.89000e+02 1.14410e+02 1.42880e+02
 1.89000e+02 1.25590e+02 1.45120e+02
 1.95000e+02 1.25590e+02 1.45120e+02
 1.95000e+02 1.14410e+02 1.45120e+02
 1.89000e+02 1.14410e+02 1.45120e+02
 1.89000e+02 1.25590e+02 1.42880e+02
 1.95000e+02 1.25590e+02 1.42880e+02
 1.95000e+02 1.11740e+02 1.31780e+02
 1.89000e+02 1.11740e+02 1.31780e+02
 1.89000e+02 1.22920e+02 1.29550e+02
 1.95000e+02 1.22920e+02 1.29550e+02
 1.95000e+02 1.09080e+02 1.18450e+02
 1.89000e+02 1.09080e+02 1.18450e+02
 1.89000e+02 1.20260e+02 1.16220e+02
 1.95000e+02 1.20260e+02 1.16220e+02
 1.95000e+02 1.06410e+02 1.05120e+02
 1.89000e+02 1.06410e+02 1.05120e+02
 1.89000e+02 1.17590e+02 1.02880e+02
 1.95000e+02 1.17590e+02 1.02880e+02
 1.95000e+02 1.03740e+02 9.17850e+01
 1.89000e+02 1.03740e+02 9.17850e+01
 1.89000e+02 1.14920e+02 8.95490e+01
 1.95000e+02 1.14920e+02 8.95490e+01
 1.95000e+02 1.01080e+02 7.84510e+01
 1.89000e+02 1.01080e+02 7.84510e+01
 1.89000e+02 1.12260e+02 7.62150e+01
 1.95000e+02 1.12260e+02 7.62150e+01
 1.95000e+02 9.84110e+01 6.51180e+01
 1.89000e+02 9.84110e+01 6.51180e+01
 1.89000e+02 1.09590e+02 6.28820e+01
 1.95000e+02 1.09590e+02 6.28820e+01
 1.95000e+02 9.57440e+01 5.17850e+01
 1.89000e+02 9.57440e+01 5.17850e+01
 1.89000e+02 1.06920e+02 4.95490e+01
 1.95000e+02 1.06920e+02 4.95490e+01
 1.95000e+02 9.30770e+01 3.84510e+01
 1.89000e+02 9.30770e+01 3.84510e+01
 1.89000e+02 1.04260e+02 3.62150e+01
 1.95000e+02 1.04260e+02 3.62150e+01
 1.95000e+02 9.04110e+01 2.51180e+01
 1.89000e+02 9.04110e+01 2.51180e+01
 1.89000e+02 1.01590e+02 2.28820e+01
 1.95000e+02 1.01590e+02 2.28820e+01
 0.00000e+00 8.98000e+01 2.67000e+02
 0.00000e+00 8.98000e+01 2.61000e+02
 0.00000e+00 1.02200e+02 2.61000e+02
 0.00000e+00 1.02200e+02 2.67000e+02
 1.37140e+01 8.98000e+01 2.67000e+02
 1.37140e+01 8.98000e+01 2.61000e+02
 1.37140e+01 1.02200e+02 2.61000e+02
 1.37140e+01 1.02200e+02 2.67000e+02
 2.74290e+01 8.98000e+01 2.67000e+02
 2.74290e+01 8.98000e+01 2.61000e+02
 2.74290e+01 1.02200e+02 2.61000e+02
 2.74290e+01 1.02200e+02 2.67000e+02
 4.11430e+01 8.98000e+01 2.67000e+02
 4.11430e+01 8.98000e+01 2.61000e+02
 4.11430e+01 1.02200e+02 2.61000e+02
 4.11430e+01 1.02200e+02 2.67000e+02
 5.48570e+01 8.98000e+01 2.67000e+02
 5.48570e+01 8.98000e+01 2.61000e+02
 5.48570e+01 1.02200e+02 2.61000e+02
 5.48570e+01 1.02200e+02 2.67000e+02
 6.85710e+01 8.98000e+01 2.67000e+02
 6.85710e+01 8.98000e+01 2.61000e+02
 6.85710e+01 1.02200e+02 2.61000e+02
 6.85710e+01 1.02200e+02 2.67000e+02
 8.22860e+01 8.98000e+01 2.67000e+02
 8.22860e+01 8.98000e+01 2.61000e+02
 8.22860e+01 1.02200e+02 2.61000e+02
 8.22860e+01 1.02200e+02 2.67000e+02
 9.60000e+01 8.98000e+01 2.67000e+02
 9.60000e+01 8.98000e+01 2.61000e+02
 9.60000e+01 1.02200e+02 2.61000e+02
 9.60000e+01 1.02200e+02 2.67000e+02
 1.09710e+02 8.98000e+01 2.67000e+02
 1.09710e+02 8.98000e+01 2.61000e+02
 1.09710e+02 1.02200e+02 2.61000e+02
 1.09710e+02 1.02200e+02 2.67000e+02
 1.23430e+02 8.98000e+01 2.67000e+02
 1.23430e+02 8.98000e+01 2.61000e+02
 1.23430e+02 1.02200e+02 2.61000e+02
 1.23430e+02 1.02200e+02 2.67000e+02
 1.37140e+02 8.98000e+01 2.67000e+02
 1.37140e+02 8.98000e+01 2.61000e+02
 1.37140e+02 1.02200e+02 2.61000e+02
 1.37140e+02 1.02200e+02 2.67000e+02
 1.50860e+02 8.98000e+01 2.67000e+02
 1.50860e+02 8.98000e+01 2.61000e+02
 1.50860e+02 1.02200e+02 2.61000e+02
 1.50860e+02 1.02200e+02 2.67000e+02
 1.64570e+02 8.98000e+01 2.67000e+02
 1.64570e+02 8.98000e+01 2.61000e+02
 1.64570e+02 1.02200e+02 2.61000e+02
 1.64570e+02 1.02200e+02 2.67000e+02
 1.78290e+02 8.98000e+01 2.67000e+02
 1.78290e+02 8.98000e+01 2.61000e+02
 1.78290e+02 1.02200e+02 2.61000e+02
 1.78290e+02 1.02200e+02 2.67000e+02
 1.92000e+02 8.98000e+01 2.67000e+02
 1.92000e+02 8.98000e+01 2.61000e+02
 1.92000e+02 1.02200e+02 2.61000e+02
 1.92000e+02 1.02200e+02 2.67000e+02
 1.92000e+02 8.98000e+01 2.67000e+02
 1.92000e+02 8.98000e+01 2.61000e+02
 1.92000e+02 1.02200e+02 2.61000e+02
 1.92000e+02 1.02200e+02 2.67000e+02
 2.05710e+02 8.98000e+01 2.67000e+02
 2.05710e+02 8.98000e+01 2.61000e+02
 2.05710e+02 1.02200e+02 2.61000e+02
 2.05710e+02 1.02200e+02 2.67000e+02
 2.19430e+02 8.98000e+01 2.67000e+02
 2.19430e+02 8.98000e+01 2.61000e+02
 2.19430e+02 1.02200e+02 2.61000e+02
 2.19430e+02 1.02200e+02 2.67000e+02
 2.33140e+02 8.98000e+01 2.67000e+02
 2.33140e+02 8.98000e+01 2.61000e+02
 2.33140e+02 1.02200e+02 2.61000e+02
 2.33140e+02 1.02200e+02 2.67000e+02
 2.46860e+02 8.98000e+01 2.67000e+02
 2.46860e+02 8.98000e+01 2.61000e+02
 2.46860e+02 1.02200e+02 2.61000e+02
 2.46860e+02 1.02200e+02 2.67000e+02
 2.60570e+02 8.98000e+01 2.67000e+02
 2.60570e+02 8.98000e+01 2.61000e+02
 2.60570e+02 1.02200e+02 2.61000e+02
 2.60570e+02 1.02200e+02 2.67000e+02
 2.74290e+02 8.98000e+01 2.67000e+02
 2.74290e+02 8.98000e+01 2.61000e+02
 2.74290e+02 1.02200e+02 2.61000e+02
 2.74290e+02 1.02200e+02 2.67000e+02
 2.88000e+02 8.98000e+01 2.67000e+02
 2.88000e+02 8.98000e+01 2.61000e+02
 2.88000e+02 1.02200e+02 2.61000e+02
 2.88000e+02 1.02200e+02 2.67000e+02
 3.01710e+02 8.98000e+01 2.67000e+02
 3.01710e+02 8.98000e+01 2.61000e+02
 3.01710e+02 1.02200e+02 2.61000e+02
 3.01710e+02 1.02200e+02 2.67000e+02
 3.15430e+02 8.98000e+01 2.67000e+02
 3.15430e+02 8.98000e+01 2.61000e+02
 3.15430e+02 1.02200e+02 2.61000e+02
 3.15430e+02 1.02200e+02 2.67000e+02
 3.29140e+02 8.98000e+01 2.67000e+02
 3.29140e+02 8.98000e+01 2.61000e+02
 3.29140e+02 1.02200e+02 2.61000e+02
 3.29140e+02 1.02200e+02 2.67000e+02
 3.42860e+02 8.98000e+01 2.67000e+02
 3.42860e+02 8.98000e+01 2.61000e+02
 3.42860e+02 1.02200e+02 2.61000e+02
 3.42860e+02 1.02200e+02 2.67000e+02
 3.56570e+02 8.98000e+01 2.67000e+02
 3.56570e+02 8.98000e+01 2.61000e+02
 3.56570e+02 1.02200e+02 2.61000e+02
 3.56570e+02 1.02200e+02 2.67000e+02
 3.70290e+02 8.98000e+01 2.67000e+02
 3.70290e+02 8.98000e+01 2.61000e+02
 3.70290e+02 1.02200e+02 2.61000e+02
 3.70290e+02 1.02200e+02 2.67000e+02
 3.84000e+02 8.98000e+01 2.67000e+02
 3.84000e+02 8.98000e+01 2.61000e+02
 3.84000e+02 1.02200e+02 2.61000e+02
 3.84000e+02 1.02200e+02 2.67000e+02
 0.00000e+00 1.14300e+02 1.47000e+02
 0.00000e+00 1.14300e+02 1.41000e+02
 0.00000e+00 1.25700e+02 1.41000e+02
 0.00000e+00 1.25700e+02 1.47000e+02
 1.37140e+01 1.14300e+02 1.47000e+02
 1.37140e+01 1.14300e+02 1.41000e+02
 1.37140e+01 1.25700e+02 1.41000e+02
 1.37140e+01 1.25700e+02 1.47000e+02
 2.74290e+01 1.14300e+02 1.47000e+02
 2.74290e+01 1.14300e+02 1.41000e+02
 2.74290e+01 1.25700e+02 1.41000e+02
 2.74290e+01 1.25700e+02 1.47000e+02
 4.11430e+01 1.14300e+02 1.47000e+02
 4.11430e+01 1.14300e+02 1.41000e+02
 4.11430e+01 1.25700e+02 1.41000e+02
 4.11430e+01 1.25700e+02 1.47000e+02
 5.48570e+01 1.14300e+02 1.47000e+02
 5.48570e+01 1.14300e+02 1.41000e+02
 5.48570e+01 1.25700e+02 1.41000e+02
 5.48570e+01 1.25700e+02 1.47000e+02
 6.85710e+01 1.14300e+02 1.47000e+02
 6.85710e+01 1.14300e+02 1.41000e+02
 6.85710e+01 1.25700e+02 1.41000e+02
 6.85710e+01 1.25700e+02 1.47000e+02
 8.22860e+01 1.14300e+02 1.47000e+02
 8.22860e+01 1.14300e+02 1.41000e+02
 8.22860e+01 1.25700e+02 1.41000e+02
 8.22860e+01 1.25700e+02 1.47000e+02
 9.60000e+01 1.14300e+02 1.47000e+02
 9.60000e+01 1.14300e+02 1.41000e+02
 9.60000e+01 1.25700e+02 1.41000e+02
 9.60000e+01 1.25700e+02 1.47000e+02
 1.09710e+02 1.14300e+02 1.47000e+02
 1.09710e+02 1.14300e+02 1.41000e+02
 1.09710e+02 1.25700e+02 1.41000e+02
 1.09710e+02 1.25700e+02 1.47000e+02
 1.23430e+02 1.14300e+02 1.47000e+02
 1.23430e+02 1.14300e+02 1.41000e+02
 1.23430e+02 1.25700e+02 1.41000e+02
 1.23430e+02 1.25700e+02 1.47000e+02
 1.37140e+02 1.14300e+02 1.47000e+02
 1.37140e+02 1.14300e+02 1.41000e+02
 1.37140e+02 1.25700e+02 1.41000e+02
 1.37140e+02 1.25700e+02 1.47000e+02
 1.50860e+02 1.14300e+02 1.47000e+02
 1.50860e+02 1.14300e+02 1.41000e+02
 1.50860e+02 1.25700e+02 1.41000e+02
 1.50860e+02 1.25700e+02 1.47000e+02
 1.64570e+02 1.14300e+02 1.47000e+02
 1.64570e+02 1.14300e+02 1.41000e+02
 1.64570e+02 1.25700e+02 1.41000e+02
 1.64570e+02 1.25700e+02 1.47000e+02
 1.78290e+02 1.14300e+02 1.47000e+02
 1.78290e+02 1.14300e+02 1.41000e+02
 1.78290e+02 1.25700e+02 1.41000e+02
 1.78290e+02 1.25700e+02 1.47000e+02
 1.92000e+02 1.14300e+02 1.47000e+02
 1.92000e+02 1.14300e+02 1.41000e+02
 1.92000e+02 1.25700e+02 1.41000e+02
 1.92000e+02 1.25700e+02 1.47000e+02
 1.92000e+02 1.14300e+02 1.47000e+02
 1.92000e+02 1.14300e+02 1.41000e+02
 1.92000e+02 1.25700e+02 1.41000e+02
 1.92000e+02 1.25700e+02 1.47000e+02
 2.05710e+02 1.14300e+02 1.47000e+02
 2.05710e+02 1.14300e+02 1.41000e+02
 2.05710e+02 1.25700e+02 1.41000e+02
 2.05710e+02 1.25700e+02 1.47000e+02
 2.19430e+02 1.14300e+02 1.47000e+02
 2.19430e+02 1.14300e+02 1.41000e+02
 2.19430e+02 1.25700e+02 1.41000e+02
 2.19430e+02 1.25700e+02 1.47000e+02
 2.33140e+02 1.14300e+02 1.47000e+02
 2.33140e+02 1.14300e+02 1.41000e+02
 2.33140e+02 1.25700e+02 1.41000e+02
 2.33140e+02 1.25700e+02 1.47000e+02
 2.46860e+02 1.14300e+02 1.47000e+02
 2.46860e+02 1.14300e+02 1.41000e+02
 2.46860e+02 1.25700e+02 1.41000e+02
 2.46860e+02 1.25700e+02 1.47000e+02
 2.60570e+02 1.14300e+02 1.47000e+02
 2.60570e+02 1.14300e+02 1.41000e+02
 2.60570e+02 1.25700e+02 1.41000e+02
 2.60570e+02 1.25700e+02 1.47000e+02
 2.74290e+02 1.14300e+02 1.47000e+02
 2.74290e+02 1.14300e+02 1.41000e+02
 2.74290e+02 1.25700e+02 1.41000e+02
 2.74290e+02 1.25700e+02 1.47000e+02
 2.88000e+02 1.14300e+02 1.47000e+02
 2.88000e+02 1.14300e+02 1.41000e+02
 2.88000e+02 1.25700e+02 1.41000e+02
 2.88000e+02 1.25700e+02 1.47000e+02
 3.01710e+02 1.14300e+02 1.47000e+02
 3.01710e+02 1.14300e+02 1.41000e+02
 3.01710e+02 1.25700e+02 1.41000e+02
 3.01710e+02 1.25700e+02 1.47000e+02
 3.15430e+02 1.14300e+02 1.47000e+02
 3.15430e+02 1.14300e+02 1.41000e+02
 3.15430e+02 1.25700e+02 1.41000e+02
 3.15430e+02 1.25700e+02 1.47000e+02
 3.29140e+02 1.14300e+02 1.47000e+02
 3.29140e+02 1.14300e+02 1.41000e+02
 3.29140e+02 1.25700e+02 1.41000e+02
 3.29140e+02 1.25700e+02 1.47000e+02
 3.42860e+02 1.14300e+02 1.47000e+02
 3.42860e+02 1.14300e+02 1.41000e+02
 3.42860e+02 1.25700e+02 1.41000e+02
 3.42860e+02 1.25700e+02 1.47000e+02
 3.56570e+02 1.14300e+02 1.47000e+02
 3.56570e+02 1.14300e+02 1.41000e+02
 3.56570e+02 1.25700e+02 1.41000e+02
 3.56570e+02 1.25700e+02 1.47000e+02
 3.70290e+02 1.14300e+02 1.47000e+02
 3.70290e+02 1.14300e+02 1.41000e+02
 3.70290e+02 1.25700e+02 1.41000e+02
 3.70290e+02 1.25700e+02 1.47000e+02
 3.84000e+02 1.14300e+02 1.47000e+02
 3.84000e+02 1.14300e+02 1.41000e+02
 3.84000e+02 1.25700e+02 1.41000e+02
 3.84000e+02 1.25700e+02 1.47000e+02
 0.00000e+00 8.98000e+01 2.70000e+01
 0.00000e+00 8.98000e+01 2.10000e+01
 0.00000e+00 1.02200e+02 2.10000e+01
 0.00000e+00 1.02200e+02 2.70000e+01
 1.37140e+01 8.98000e+01 2.70000e+01
 1.37140e+01 8.98000e+01 2.10000e+01
 1.37140e+01 1.02200e+02 2.10000e+01
 1.37140e+01 1.02200e+02 2.70000e+01
 2.74290e+01 8.98000e+01 2.70000e+01
 2.74290e+01 8.98000e+01 2.10000e+01
 2.74290e+01 1.02200e+02 2.10000e+01
 2.74290e+01 1.02200e+02 2.70000e+01
 4.11430e+01 8.98000e+01 2.70000e+01
 4.11430e+01 8.98000e+01 2.10000e+01
 4.11430e+01 1.02200e+02 2.10000e+01
 4.11430e+01 1.02200e+02 2.70000e+01
 5.48570e+01 8.98000e+01 2.70000e+01
 5.48570e+01 8.98000e+01 2.10000e+01
 5.48570e+01 1.02200e+02 2.10000e+01
 5.48570e+01 1.02200e+02 2.70000e+01
 6.85710e+01 8.98000e+01 2.70000e+01
 6.85710e+01 8.98000e+01 2.10000e+01
 6.85710e+01 1.02200e+02 2.10000e+01
 6.85710e+01 1.02200e+02 2.70000e+01
 8.22860e+01 8.98000e+01 2.70000e+01
 8.22860e+01 8.98000e+01 2.10000e+01
 8.22860e+01 1.02200e+02 2.10000e+01
 8.22860e+01 1.02200e+02 2.70000e+01
 9.60000e+01 8.98000e+01 2.70000e+01
 9.60000e+01 8.98000e+01 2.10000e+01
 9.60000e+01 1.02200e+02 2.10000e+01
 9.60000e+01 1.02200e+02 2.70000e+01
 1.09710e+02 8.98000e+01 2.70000e+01
 1.09710e+02 8.98000e+01 2.10000e+01
 1.09710e+02 1.02200e+02 2.10000e+01
 1.09710e+02 1.02200e+02 2.70000e+01
 1.23430e+02 8.98000e+01 2.70000e+01
 1.23430e+02 8.98000e+01 2.10000e+01
 1.23430e+02 1.02200e+02 2.10000e+01
 1.23430e+02 1.02200e+02 2.70000e+01
 1.37140e+02 8.98000e+01 2.70000e+01
 1.37140e+02 8.98000e+01 2.10000e+01
 1.37140e+02 1.02200e+02 2.10000e+01
 1.37140e+02 1.02200e+02 2.70000e+01
 1.50860e+02 8.98000e+01 2.70000e+01
 1.50860e+02 8.98000e+01 2.10000e+01
 1.50860e+02 1.02200e+02 2.10000e+01
 1.50860e+02 1.02200e+02 2.70000e+01
 1.64570e+02 8.98000e+01 2.70000e+01
 1.64570e+02 8.98000e+01 2.10000e+01
 1.64570e+02 1.02200e+02 2.10000e+01
 1.64570e+02 1.02200e+02 2.70000e+01
 1.78290e+02 8.98000e+01 2.70000e+01
 1.78290e+02 8.98000e+01 2.10000e+01
 1.78290e+02 1.02200e+02 2.10000e+01
 1.78290e+02 1.02200e+02 2.70000e+01
 1.92000e+02 8.98000e+01 2.70000e+01
 1.92000e+02 8.98000e+01 2.10000e+01
 1.92000e+02 1.02200e+02 2.10000e+01
 1.92000e+02 1.02200e+02 2.70000e+01
 1.92000e+02 8.98000e+01 2.70000e+01
 1.92000e+02 8.98000e+01 2.10000e+01
 1.92000e+02 1.02200e+02 2.10000e+01
 1.92000e+02 1.02200e+02 2.70000e+01
 2.05710e+02 8.98000e+01 2.70000e+01
 2.05710e+02 8.98000e+01 2.10000e+01
 2.05710e+02 1.02200e+02 2.10000e+01
 2.05710e+02 1.02200e+02 2.70000e+01
 2.19430e+02 8.98000e+01 2.70000e+01
 2.19430e+02 8.98000e+01 2.10000e+01
 2.19430e+02 1.02200e+02 2.10000e+01
 2.19430e+02 1.02200e+02 2.70000e+01
 2.33140e+02 8.98000e+01 2.70000e+01
 2.33140e+02 8.98000e+01 2.10000e+01
 2.33140e+02 1.02200e+02 2.10000e+01
 2.33140e+02 1.02200e+02 2.70000e+01
 2.46860e+02 8.98000e+01 2.70000e+01
 2.46860e+02 8.98000e+01 2.10000e+01
 2.46860e+02 1.02200e+02 2.10000e+01
 2.46860e+02 1.02200e+02 2.70000e+01
 2.60570e+02 8.98000e+01 2.70000e+01
 2.60570e+02 8.98000e+01 2.10000e+01
 2.60570e+02 1.02200e+02 2.10000e+01
 2.60570e+02 1.02200e+02 2.70000e+01
 2.74290e+02 8.98000e+01 2.70000e+01
 2.74290e+02 8.98000e+01 2.10000e+01
 2.74290e+02 1.02200e+02 2.10000e+01
 2.74290e+02 1.02200e+02 2.70000e+01
 2.88000e+02 8.98000e+01 2.70000e+01
 2.88000e+02 8.98000e+01 2.10000e+01
 2.88000e+02 1.02200e+02 2.10000e+01
 2.88000e+02 1.02200e+02 2.70000e+01
 3.01710e+02 8.98000e+01 2.70000e+01
 3.01710e+02 8.98000e+01 2.10000e+01
 3.01710e+02 1.02200e+02 2.10000e+01
 3.01710e+02 1.02200e+02 2.70000e+01
 3.15430e+02 8.98000e+01 2.70000e+01
 3.15430e+02 8.98000e+01 2.10000e+01
 3.15430e+02 1.02200e+02 2.10000e+01
 3.15430e+02 1.02200e+02 2.70000e+01
 3.29140e+02 8.98000e+01 2.70000e+01
 3.29140e+02 8.98000e+01 2.10000e+01
 3.29140e+02 1.02200e+02 2.10000e+01
 3.29140e+02 1.02200e+02 2.70000e+01
 3.42860e+02 8.98000e+01 2.70000e+01
 3.42860e+02 8.98000e+01 2.10000e+01
 3.42860e+02 1.02200e+02 2.10000e+01
 3.42860e+02 1.02200e+02 2.70000e+01
 3.56570e+02 8.98000e+01 2.70000e+01
 3.56570e+02 8.98000e+01 2.10000e+01
 3.56570e+02 1.02200e+02 2.10000e+01
 3.56570e+02 1.02200e+02 2.70000e+01
 3.70290e+02 8.98000e+01 2.70000e+01
 3.70290e+02 8.98000e+01 2.10000e+01
 3.70290e+02 1.02200e+02 2.10000e+01
 3.70290e+02 1.02200e+02 2.70000e+01
 3.84000e+02 8.98000e+01 2.70000e+01
 3.84000e+02 8.98000e+01 2.10000e+01
 3.84000e+02 1.02200e+02 2.10000e+01
 3.84000e+02 1.02200e+02 2.70000e+01
-2.00000e+01 9.60000e+01 2.64000e+02
-4.93330e+01 9.60000e+01 2.74000e+02
-4.93330e+01 1.06000e+02 2.64000e+02
-4.93330e+01 8.60000e+01 2.64000e+02
-4.93330e+01 9.60000e+01 2.54000e+02
-4.93330e+01 1.00000e+02 2.68000e+02
-4.93330e+01 9.20000e+01 2.68000e+02
-4.93330e+01 1.00000e+02 2.60000e+02
-4.93330e+01 9.20000e+01 2.60000e+02
-1.08000e+02 1.00000e+02 2.68000e+02
-1.08000e+02 9.20000e+01 2.68000e+02
-1.08000e+02 1.00000e+02 2.60000e+02
-1.08000e+02 9.20000e+01 2.60000e+02
 4.04000e+02 9.60000e+01 2.40000e+01
 4.33330e+02 9.60000e+01 3.40000e+01
 4.33330e+02 8.60000e+01 2.40000e+01
 4.33330e+02 1.06000e+02 2.40000e+01
 4.33330e+02 9.60000e+01 1.40000e+01
 4.33330e+02 9.20000e+01 2.80000e+01
 4.33330e+02 1.00000e+02 2.80000e+01
 4.33330e+02 9.20000e+01 2.00000e+01
 4.33330e+02 1.00000e+02 2.00000e+01
 4.92000e+02 9.20000e+01 2.80000e+01
 4.92000e+02 1.00000e+02 2.80000e+01
 4.92000e+02 9.20000e+01 2.00000e+01
 4.92000e+02 1.00000e+02 2.00000e+01
-2.40000e+01 0.00000e+00 3.00000e+02
 4.08000e+02 0.00000e+00 3.00000e+02
 4.08000e+02 0.00000e+00-1.20000e+01
-2.40000e+01 0.00000e+00-1.20000e+01
-2.40000e+01-2.40000e+01 3.00000e+02
 4.08000e+02-2.40000e+01 3.00000e+02
 4.08000e+02-2.40000e+01-1.20000e+01
-2.40000e+01-2.40000e+01-1.20000e+01
part 1
3d space frame
quad4
     696
       5       1       2       6
       6       2       3       7
       7       3       4       8
       8       4       1       5
       9       5       6      10
      10       6       7      11
      11       7       8      12
      12       8       5       9
      13       9      10      14
      14      10      11      15
      15      11      12      16
      16      12       9      13
      17      13      14      18
      18      14      15      19
      19      15      16      20
      20      16      13      17
      21      17      18      22
      22      18      19      23
      23      19      20      24
      24      20      17      21
      25      21      22      26
      26      22      23      27
      27      23      24      28
      28      24      21      25
      29      25      26      30
      30      26      27      31
      31      27      28      32
      32      28      25      29
      37      33      34      38
      38      34      35      39
      39      35      36      40
      40      36      33      37
      41      37      38      42
      42      38      39      43
      43      39      40      44
      44      40      37      41
      45      41      42      46
      46      42      43      47
      47      43      44      48
      48      44      41      45
      49      45      46      50
      50      46      47      51
      51      47      48      52
      52      48      45      49
      53      49      50      54
      54      50      51      55
      55      51      52      56
      56      52      49      53
      57      53      54      58
      58      54      55      59
      59      55      56      60
      60      56      53      57
      61      57      58      62
      62      58      59      63
      63      59      60      64
      64      60      57      61
      69      65      66      70
      70      66      67      71
      71      67      68      72
      72      68      65      69
      73      69      70      74
      74      70      71      75
      75      71      72      76
      76      72      69      73
      77      73      74      78
      78      74      75      79
      79      75      76      80
      80      76      73      77
      81      77      78      82
      82      78      79      83
      83      79      80      84
      84      80      77      81
      85      81      82      86
      86      82      83      87
      87      83      84      88
      88      84      81      85
      89      85      86      90
      90      86      87      91
      91      87      88      92
      92      88      85      89
      93      89      90      94
      94      90      91      95
      95      91      92      96
      96      92      89      93
     101      97      98     102
     102      98      99     103
     103      99     100     104
     104     100      97     101
     105     101     102     106
     106     102     103     107
     107     103     104     108
     108     104     101     105
     109     105     106     110
     110     106     107     111
     111     107     108     112
     112     108     105     109
     113     109     110     114
     114     110     111     115
     115     111     112     116
     116     112     109     113
     117     113     114     118
     118     114     115     119
     119     115     116     120
     120     116     113     117
     121     117     118     122
     122     118     119     123
     123     119     120     124
     124     120     117     121
     125     121     122     126
     126     122     123     127
     127     123     124     128
     128     124     121     125
     133     129     130     134
     134     130     131     135
     135     131     132     136
     136     132     129     133
     137     133     134     138
     138     134     135     139
     139     135     136     140
     140     136     133     137
     145     141     142     146
     146     142     143     147
     147     143     144     148
     148     144     141     145
     149     145     146     150
     150     146     147     151
     151     147     148     152
     152     148     145     149
     153     149     150     154
     154     150     151     155
     155     151     152     156
     156     152     149     153
     157     153     154     158
     158     154     155     159
     159     155     156     160
     160     156     153     157
     161     157     158     162
     162     158     159     163
     163     159     160     164
     164     160     157     161
     165     161     162     166
     166     162     163     167
     167     163     164     168
     168     164     161     165
     169     165     166     170
     170     166     167     171
     171     167     168     172
     172     168     165     169
     173     169     170     174
     174     170     171     175
     175     171     172     176
     176     172     169     173
     177     173     174     178
     178     174     175     179
     179     175     176     180
     180     176     173     177
     185     181     182     186
     186     182     183     187
     187     183     184     188
     188     184     181     185
     189     185     186     190
     190     186     187     191
     191     187     188     192
     192     188     185     189
     193     189     190     194
     194     190     191     195
     195     191     192     196
     196     192     189     193
     197     193     194     198
     198     194     195     199
     199     195     196     200
     200     196     193     197
     201     197     198     202
     202     198     199     203
     203     199     200     204
     204     200     197     201
     205     201     202     206
     206     202     203     207
     207     203     204     208
     208     204     201     205
     209     205     206     210
     210     206     207     211
     211     207     208     212
     212     208     205     209
     213     209     210     214
     214     210     211     215
     215     211     212     216
     216     212     209     213
     217     213     214     218
     218     214     215     219
     219     215     216     220
     220     216     213     217
     225     221     222     226
     226     222     223     227
     227     223     224     228
     228     224     221     225
     229     225     226     230
     230     226     227     231
     231     227     228     232
     232     228     225     229
     237     233     234     238
     238     234     235     239
     239     235     236     240
     240     236     233     237
     241     237     238     242
     242     238     239     243
     243     239     240     244
     244     240     237     241
     249     245     246     250
     250     246     247     251
     251     247     248     252
     252     248     245     249
     253     249     250     254
     254     250     251     255
     255     251     252     256
     256     252     249     253
     257     253     254     258
     258     254     255     259
     259     255     256     260
     260     256     253     257
     261     257     258     262
     262     258     259     263
     263     259     260     264
     264     260     257     261
     265     261     262     266
     266     262     263     267
     267     263     264     268
     268     264     261     265
     269     265     266     270
     270     266     267     271
     271     267     268     272
     272     268     265     269
     273     269     270     274
     274     270     271     275
     275     271     272     276
     276     272     269     273
     277     273     274     278
     278     274     275     279
     279     275     276     280
     280     276     273     277
     281     277     278     282
     282     278     279     283
     283     279     280     284
     284     280     277     281
     289     285     286     290
     290     286     287     291
     291     287     288     292
     292     288     285     289
     293     289     290     294
     294     290     291     295
     295     291     292     296
     296     292     289     293
     297     293     294     298
     298     294     295     299
     299     295     296     300
     300     296     293     297
     301     297     298     302
     302     298     299     303
     303     299     300     304
     304     300     297     301
     305     301     302     306
     306     302     303     307
     307     303     304     308
     308     304     301     305
     309     305     306     310
     310     306     307     311
     311     307     308     312
     312     308     305     309
     313     309     310     314
     314     310     311     315
     315     311     312     316
     316     312     309     313
     317     313     314     318
     318     314     315     319
     319     315     316     320
     320     316     313     317
     321     317     318     322
     322     318     319     323
     323     319     320     324
     324     320     317     321
     329     325     326     330
     330     326     327     331
     331     327     328     332
     332     328     325     329
     333     329     330     334
     334     330     331     335
     335     331     332     336
     336     332     329     333
     341     337     338     342
     342     338     339     343
     343     339     340     344
     344     340     337     341
     345     341     342     346
     346     342     343     347
     347     343     344     348
     348     344     341     345
     349     345     346     350
     350     346     347     351
     351     347     348     352
     352     348     345     349
     353     349     350     354
     354     350     351     355
     355     351     352     356
     356     352     349     353
     357     353     354     358
     358     354     355     359
     359     355     356     360
     360     356     353     357
     361     357     358     362
     362     358     359     363
     363     359     360     364
     364     360     357     361
     365     361     362     366
     366     362     363     367
     367     363     364     368
     368     364     361     365
     369     365     366     370
     370     366     367     371
     371     367     368     372
     372     368     365     369
     373     369     370     374
     374     370     371     375
     375     371     372     376
     376     372     369     373
     381     377     378     382
     382     378     379     383
     383     379     380     384
     384     380     377     381
     385     381     382     386
     386     382     383     387
     387     383     384     388
     388     384     381     385
     389     385     386     390
     390     386     387     391
     391     387     388     392
     392     388     385     389
     393     389     390     394
     394     390     391     395
     395     391     392     396
     396     392     389     393
     397     393     394     398
     398     394     395     399
     399     395     396     400
     400     396     393     397
     401     397     398     402
     402     398     399     403
     403     399     400     404
     404     400     397     401
     405     401     402     406
     406     402     403     407
     407     403     404     408
     408     404     401     405
     409     405     406     410
     410     406     407     411
     411     407     408     412
     412     408     405     409
     413     409     410     414
     414     410     411     415
     415     411     412     416
     416     412     409     413
     421     417     418     422
     422     418     419     423
     423     419     420     424
     424     420     417     421
     425     421     422     426
     426     422     423     427
     427     423     424     428
     428     424     421     425
     429     425     426     430
     430     426     427     431
     431     427     428     432
     432     428     425     429
     433     429     430     434
     434     430     431     435
     435     431     432     436
     436     432     429     433
     437     433     434     438
     438     434     435     439
     439     435     436     440
     440     436     433     437
     441     437     438     442
     442     438     439     443
     443     439     440     444
     444     440     437     441
     445     441     442     446
     446     442     443     447
     447     443     444     448
     448     444     441     445
     449     445     446     450
     450     446     447     451
     451     447     448     452
     452     448     445     449
     453     449     450     454
     454     450     451     455
     455     451     452     456
     456     452     449     453
     457     453     454     458
     458     454     455     459
     459     455     456     460
     460     456     453     457
     461     457     458     462
     462     458     459     463
     463     459     460     464
     464     460     457     461
     465     461     462     466
     466     462     463     467
     467     463     464     468
     468     464     461     465
     469     465     466     470
     470     466     467     471
     471     467     468     472
     472     468     465     469
     473     469     470     474
     474     470     471     475
     475     471     472     476
     476     472     469     473
     481     477     478     482
     482     478     479     483
     483     479     480     484
     484     480     477     481
     485     481     482     486
     486     482     483     487
     487     483     484     488
     488     484     481     485
     489     485     486     490
     490     486     487     491
     491     487     488     492
     492     488     485     489
     493     489     490     494
     494     490     491     495
     495     491     492     496
     496     492     489     493
     497     493     494     498
     498     494     495     499
     499     495     496     500
     500     496     493     497
     501     497     498     502
     502     498     499     503
     503     499     500     504
     504     500     497     501
     505     501     502     506
     506     502     503     507
     507     503     504     508
     508     504     501     505
     509     505     506     510
     510     506     507     511
     511     507     508     512
     512     508     505     509
     513     509     510     514
     514     510     511     515
     515     511     512     516
     516     512     509     513
     517     513     514     518
     518     514     515     519
     519     515     516     520
     520     516     513     517
     521     517     518     522
     522     518     519     523
     523     519     520     524
     524     520     517     521
     525     521     522     526
     526     522     523     527
     527     523     524     528
     528     524     521     525
     529     525     526     530
     530     526     527     531
     531     527     528     532
     532     528     525     529
     533     529     530     534
     534     530     531     535
     535     531     532     536
     536     532     529     533
     541     537     538     542
     542     538     539     543
     543     539     540     544
     544     540     537     541
     545     541     542     546
     546     542     543     547
     547     543     544     548
     548     544     541     545
     549     545     546     550
     550     546     547     551
     551     547     548     552
     552     548     545     549
     553     549     550     554
     554     550     551     555
     555     551     552     556
     556     552     549     553
     557     553     554     558
     558     554     555     559
     559     555     556     560
     560     556     553     557
     561     557     558     562
     562     558     559     563
     563     559     560     564
     564     560     557     561
     565     561     562     566
     566     562     563     567
     567     563     564     568
     568     564     561     565
     569     565     566     570
     570     566     567     571
     571     567     568     572
     572     568     565     569
     573     569     570     574
     574     570     571     575
     575     571     572     576
     576     572     569     573
     577     573     574     578
     578     574     575     579
     579     575     576     580
     580     576     573     577
     581     577     578     582
     582     578     579     583
     583     579     580     584
     584     580     577     581
     585     581     582     586
     586     582     583     587
     587     583     584     588
     588     584     581     585
     589     585     586     590
     590     586     587     591
     591     587     588     592
     592     588     585     589
     593     589     590     594
     594     590     591     595
     595     591     592     596
     596     592     589     593
     601     597     598     602
     602     598     599     603
     603     599     600     604
     604     600     597     601
     605     601     602     606
     606     602     603     607
     607     603     604     608
     608     604     601     605
     609     605     606     610
     610     606     607     611
     611     607     608     612
     612     608     605     609
     613     609     610     614
     614     610     611     615
     615     611     612     616
     616     612     609     613
     617     613     614     618
     618     614     615     619
     619     615     616     620
     620     616     613     617
     621     617     618     622
     622     618     619     623
     623     619     620     624
     624     620     617     621
     625     621     622     626
     626     622     623     627
     627     623     624     628
     628     624     621     625
     629     625     626     630
     630     626     627     631
     631     627     628     632
     632     628     625     629
     633     629     630     634
     634     630     631     635
     635     631     632     636
     636     632     629     633
     637     633     634     638
     638     634     635     639
     639     635     636     640
     640     636     633     637
     641     637     638     642
     642     638     639     643
     643     639     640     644
     644     640     637     641
     645     641     642     646
     646     642     643     647
     647     643     644     648
     648     644     641     645
     649     645     646     650
     650     646     647     651
     651     647     648     652
     652     648     645     649
     653     649     650     654
     654     650     651     655
     655     651     652     656
     656     652     649     653
     661     657     658     662
     662     658     659     663
     663     659     660     664
     664     660     657     661
     665     661     662     666
     666     662     663     667
     667     663     664     668
     668     664     661     665
     669     665     666     670
     670     666     667     671
     671     667     668     672
     672     668     665     669
     673     669     670     674
     674     670     671     675
     675     671     672     676
     676     672     669     673
     677     673     674     678
     678     674     675     679
     679     675     676     680
     680     676     673     677
     681     677     678     682
     682     678     679     683
     683     679     680     684
     684     680     677     681
     685     681     682     686
     686     682     683     687
     687     683     684     688
     688     684     681     685
     689     685     686     690
     690     686     687     691
     691     687     688     692
     692     688     685     689
     693     689     690     694
     694     690     691     695
     695     691     692     696
     696     692     689     693
     697     693     694     698
     698     694     695     699
     699     695     696     700
     700     696     693     697
     701     697     698     702
     702     698     699     703
     703     699     700     704
     704     700     697     701
     705     701     702     706
     706     702     703     707
     707     703     704     708
     708     704     701     705
     709     705     706     710
     710     706     707     711
     711     707     708     712
     712     708     705     709
     713     709     710     714
     714     710     711     715
     715     711     712     716
     716     712     709     713
     721     717     718     722
     722     718     719     723
     723     719     720     724
     724     720     717     721
     725     721     722     726
     726     722     723     727
     727     723     724     728
     728     724     721     725
     729     725     726     730
     730     726     727     731
     731     727     728     732
     732     728     725     729
     733     729     730     734
     734     730     731     735
     735     731     732     736
     736     732     729     733
     737     733     734     738
     738     734     735     739
     739     735     736     740
     740     736     733     737
     741     737     738     742
     742     738     739     743
     743     739     740     744
     744     740     737     741
     745     741     742     746
     746     742     743     747
     747     743     744     748
     748     744     741     745
     749     745     746     750
     750     746     747     751
     751     747     748     752
     752     748     745     749
     753     749     750     754
     754     750     751     755
     755     751     752     756
     756     752     749     753
     757     753     754     758
     758     754     755     759
     759     755     756     760
     760     756     753     757
     761     757     758     762
     762     758     759     763
     763     759     760     764
     764     760     757     761
     765     761     762     766
     766     762     763     767
     767     763     764     768
     768     764     761     765
     769     765     766     770
     770     766     767     771
     771     767     768     772
     772     768     765     769
     773     769     770     774
     774     770     771     775
     775     771     772     776
     776     772     769     773
part 2
green arrow
tria3
       4
     777     778     780
     777     780     781
     777     781     779
     777     779     778
quad4
       6
     778     779     781     780
     783     787     789     785
     785     789     788     784
     784     788     786     782
     782     786     787     783
     787     786     788     789
part 3
blue arrow
tria3
       4
     790     791     793
     790     793     794
     790     794     792
     790     792     791
quad4
       6
     791     792     794     793
     796     800     802     798
     798     802     801     797
     797     801     799     795
     795     799     800     796
     800     799     801     802
part 4
frame base
quad4
       5
     803     804     805     806
     803     807     808     804
     804     808     809     805
     805     809     810     806
     806     810     807     803
