X29 Model
File:  x29.geo
node id assign
element id assign
coordinates
     596
 0.00000e+00-1.42930e+01 2.43500e+00
 0.00000e+00-2.35320e+01 9.63700e+00
-1.99000e-01-1.44920e+01 2.41700e+00
 0.00000e+00-2.36020e+01 9.63100e+00
 1.99000e-01-1.44920e+01 2.41700e+00
-3.99000e-01-1.68770e+01 2.20900e+00
-1.40000e-01-2.44360e+01 9.55800e+00
 1.40000e-01-2.44360e+01 9.55800e+00
 3.99000e-01-1.68770e+01 2.20900e+00
-3.99000e-01-1.86650e+01 2.05300e+00
-1.40000e-01-2.50620e+01 9.50400e+00
 1.40000e-01-2.50620e+01 9.50400e+00
 3.99000e-01-1.86650e+01 2.05300e+00
 0.00000e+00-2.39310e+01 1.59300e+00
 0.00000e+00-2.71660e+01 1.00210e+01
 0.00000e+00-2.40550e+01 9.89200e+00
 0.00000e+00-2.49660e+01 1.00130e+01
 4.86900e+00-2.37170e+01-7.85000e-01
 4.86900e+00-2.16750e+01-6.28000e-01
 1.92600e+00-2.16750e+01-6.28000e-01
 1.82900e+00-2.37170e+01-7.85000e-01
 4.86900e+00-1.02250e+01-5.88000e-01
 2.27700e+00-1.42930e+01-6.02000e-01
 4.86900e+00-1.02250e+01-1.30000e+00
 4.86900e+00-2.16750e+01-9.42000e-01
 1.92600e+00-2.16750e+01-9.42000e-01
 2.27700e+00-1.42930e+01-1.17300e+00
 4.86900e+00-1.31940e+01-1.72800e+00
 4.86900e+00-1.18590e+01-9.52000e-01
 4.86900e+00-1.17170e+01-1.44500e+00
-4.86900e+00-2.37170e+01-7.85000e-01
-1.82900e+00-2.37170e+01-7.85000e-01
-1.92600e+00-2.16750e+01-6.28000e-01
-4.86900e+00-2.16750e+01-6.28000e-01
-2.27700e+00-1.42930e+01-6.02000e-01
-4.86900e+00-1.02250e+01-5.88000e-01
-4.86900e+00-1.02250e+01-1.30000e+00
-2.27700e+00-1.42930e+01-1.17300e+00
-1.92600e+00-2.16750e+01-9.42000e-01
-4.86900e+00-2.16750e+01-9.42000e-01
-1.82900e+00-2.37170e+01-7.85000e-01
-4.86900e+00-2.37170e+01-7.85000e-01
-4.86900e+00-1.31940e+01-1.72800e+00
-4.86900e+00-1.17170e+01-1.44500e+00
-4.86900e+00-1.18590e+01-9.52000e-01
 4.86900e+00-1.02250e+01-5.88000e-01
 2.67000e+00-5.96900e+00-5.05000e-01
 6.25300e+00-4.57100e+00-5.35000e-01
 2.94500e+00-3.38500e+00-4.76000e-01
 6.68000e+00-2.82700e+00-7.86000e-01
 3.17900e+00-1.18700e+00-7.72000e-01
 6.88000e+00-2.01000e+00-1.15600e+00
 3.28900e+00-1.57000e-01-1.21100e+00
 3.17900e+00-1.18700e+00-7.72000e-01
 6.88000e+00-2.01000e+00-1.15600e+00
 6.91100e+00-1.88500e+00-1.26800e+00
 3.30600e+00 0.00000e+00-1.34300e+00
 3.28900e+00-1.57000e-01-1.21100e+00
 6.91100e+00-1.88500e+00-1.42900e+00
 3.30600e+00 0.00000e+00-1.54700e+00
 6.88000e+00-2.01000e+00-1.54300e+00
 3.28900e+00-1.57000e-01-1.68000e+00
 6.74600e+00-2.56000e+00-1.66300e+00
 3.21500e+00-8.51000e-01-1.81900e+00
 6.15300e+00-4.97900e+00-1.66000e+00
 2.89100e+00-3.89800e+00-1.79900e+00
 3.21500e+00-8.51000e-01-1.81900e+00
 6.15300e+00-4.97900e+00-1.66000e+00
 5.33100e+00-8.34000e+00-1.30800e+00
 2.67000e+00-5.96900e+00-1.58000e+00
 2.89100e+00-3.89800e+00-1.79900e+00
 4.86900e+00-1.02250e+01-1.30000e+00
 2.27700e+00-1.42930e+01-1.17300e+00
-4.86900e+00-1.02250e+01-5.88000e-01
-2.27700e+00-1.42930e+01-6.02000e-01
-2.67000e+00-5.96900e+00-5.05000e-01
-2.94500e+00-3.38500e+00-4.76000e-01
-6.25300e+00-4.57100e+00-5.35000e-01
-3.17900e+00-1.18700e+00-7.72000e-01
-6.68000e+00-2.82700e+00-7.86000e-01
-3.28900e+00-1.57000e-01-1.21100e+00
-6.88000e+00-2.01000e+00-1.15600e+00
-3.30600e+00 0.00000e+00-1.34300e+00
-6.91100e+00-1.88500e+00-1.26800e+00
-3.30600e+00 0.00000e+00-1.54700e+00
-6.91100e+00-1.88500e+00-1.42900e+00
-3.28900e+00-1.57000e-01-1.68000e+00
-6.88000e+00-2.01000e+00-1.54300e+00
-3.28900e+00-1.57000e-01-1.68000e+00
-3.21500e+00-8.51000e-01-1.81900e+00
-6.74600e+00-2.56000e+00-1.66300e+00
-2.89100e+00-3.89800e+00-1.79900e+00
-6.15300e+00-4.97900e+00-1.66000e+00
-2.67000e+00-5.96900e+00-1.58000e+00
-5.33100e+00-8.34000e+00-1.30800e+00
-4.86900e+00-1.02250e+01-1.30000e+00
-2.27700e+00-1.42930e+01-1.17300e+00
 1.68060e+01-1.25700e+00-1.09900e+00
 1.68480e+01-5.50000e-01-9.70000e-01
 1.68450e+01-6.13000e-01-7.46000e-01
 1.68890e+01 1.41000e-01-9.05000e-01
 1.69430e+01 1.03700e+00-9.16000e-01
 1.70980e+01 3.64400e+00-6.94000e-01
 1.70480e+01 2.81200e+00-5.56000e-01
 1.68890e+01 1.41000e-01-5.86000e-01
 1.70370e+01 2.62300e+00-1.12600e+00
 1.71050e+01 3.77000e+00-1.14000e+00
 1.71200e+01 4.02100e+00-1.08000e+00
 1.71240e+01 4.08400e+00-1.01700e+00
 1.71240e+01 4.08400e+00-9.52000e-01
 1.71200e+01 4.02100e+00-8.89000e-01
 1.63350e+01-3.37000e-01-5.86000e-01
 1.63350e+01-1.09100e+00-7.54000e-01
 1.63350e+01-1.72800e+00-1.12400e+00
 6.91100e+00-1.88500e+00-1.26800e+00
 6.91100e+00-1.88500e+00-1.42900e+00
 6.88000e+00-2.01000e+00-1.54300e+00
 6.74600e+00-2.56000e+00-1.66300e+00
 6.15300e+00-4.97900e+00-1.66000e+00
 5.33100e+00-8.34000e+00-1.30800e+00
 1.63350e+01-3.37000e-01-9.23000e-01
 1.63350e+01-1.02800e+00-9.90000e-01
-1.68060e+01-1.25700e+00-1.09900e+00
-1.68450e+01-6.13000e-01-7.46000e-01
-1.68480e+01-5.50000e-01-9.70000e-01
-1.68890e+01 1.41000e-01-9.05000e-01
-1.68890e+01 1.41000e-01-5.86000e-01
-1.70480e+01 2.81200e+00-5.56000e-01
-1.70980e+01 3.64400e+00-6.94000e-01
-1.69430e+01 1.03700e+00-9.16000e-01
-1.71200e+01 4.02100e+00-8.89000e-01
-1.71240e+01 4.08400e+00-9.52000e-01
-1.71240e+01 4.08400e+00-1.01700e+00
-1.71200e+01 4.02100e+00-1.08000e+00
-1.71050e+01 3.77000e+00-1.14000e+00
-1.70370e+01 2.62300e+00-1.12600e+00
-1.63350e+01-3.37000e-01-5.86000e-01
-4.86900e+00-1.02250e+01-5.88000e-01
-6.25300e+00-4.57100e+00-5.35000e-01
-1.63350e+01-1.72800e+00-1.12400e+00
-1.63350e+01-1.09100e+00-7.54000e-01
-6.68000e+00-2.82700e+00-7.86000e-01
-6.88000e+00-2.01000e+00-1.15600e+00
-6.91100e+00-1.88500e+00-1.26800e+00
-6.91100e+00-1.88500e+00-1.42900e+00
-6.88000e+00-2.01000e+00-1.54300e+00
-1.63350e+01-3.37000e-01-9.23000e-01
-1.63350e+01-1.02800e+00-9.90000e-01
-3.84800e+00 9.26700e+00-5.42000e-01
-3.84800e+00 1.17800e+01-6.60000e-01
-8.63900e+00 7.85300e+00-6.60000e-01
-8.63900e+00 7.03000e+00-6.21000e-01
-3.84800e+00 7.06800e+00-5.03000e-01
-8.63900e+00 6.31000e+00-6.08000e-01
-3.84800e+00 4.86900e+00-5.42000e-01
-8.63900e+00 5.58900e+00-6.21000e-01
-3.84800e+00 2.67000e+00-6.60000e-01
-8.63900e+00 4.86900e+00-6.60000e-01
-3.84800e+00 9.26700e+00-7.77000e-01
-8.63900e+00 7.03000e+00-6.98000e-01
-3.84800e+00 7.06800e+00-8.17000e-01
-8.63900e+00 6.31000e+00-7.11000e-01
-3.84800e+00 4.86900e+00-7.77000e-01
-8.63900e+00 5.58900e+00-6.98000e-01
-3.84800e+00 4.86900e+00-7.77000e-01
-3.84800e+00 2.67000e+00-6.60000e-01
-8.63900e+00 4.86900e+00-6.60000e-01
-8.63900e+00 5.58900e+00-6.98000e-01
-8.63900e+00 7.85300e+00-6.60000e-01
-8.63900e+00 7.03000e+00-6.98000e-01
-8.63900e+00 6.31000e+00-7.11000e-01
-8.63900e+00 5.58900e+00-6.21000e-01
-8.63900e+00 6.31000e+00-6.08000e-01
-8.63900e+00 7.03000e+00-6.21000e-01
 3.84800e+00 1.17800e+01-6.60000e-01
 3.84800e+00 9.26700e+00-5.42000e-01
 8.63900e+00 7.03000e+00-6.21000e-01
 8.63900e+00 7.85300e+00-6.60000e-01
 3.84800e+00 7.06800e+00-5.03000e-01
 8.63900e+00 6.31000e+00-6.08000e-01
 3.84800e+00 4.86900e+00-5.42000e-01
 8.63900e+00 5.58900e+00-6.21000e-01
 3.84800e+00 4.86900e+00-5.42000e-01
 3.84800e+00 2.67000e+00-6.60000e-01
 8.63900e+00 4.86900e+00-6.60000e-01
 8.63900e+00 5.58900e+00-6.21000e-01
 3.84800e+00 9.26700e+00-7.77000e-01
 3.84800e+00 1.17800e+01-6.60000e-01
 8.63900e+00 7.85300e+00-6.60000e-01
 8.63900e+00 7.03000e+00-6.98000e-01
 3.84800e+00 7.06800e+00-8.17000e-01
 8.63900e+00 6.31000e+00-7.11000e-01
 3.84800e+00 4.86900e+00-7.77000e-01
 8.63900e+00 5.58900e+00-6.98000e-01
 8.63900e+00 7.03000e+00-6.21000e-01
 8.63900e+00 6.31000e+00-6.08000e-01
 8.63900e+00 4.86900e+00-6.60000e-01
 8.63900e+00 5.58900e+00-6.98000e-01
 8.63900e+00 6.31000e+00-7.11000e-01
 8.63900e+00 7.03000e+00-6.98000e-01
-4.86900e+00-1.31940e+01-1.72800e+00
-4.86900e+00-1.18590e+01-9.52000e-01
-4.86900e+00-1.17170e+01-1.44500e+00
-1.63350e+01-1.72800e+00-1.12400e+00
-1.97000e-01 1.13090e+01 4.39800e+00
-3.37000e-01 2.67000e+00 3.37700e+00
 3.37000e-01 2.67000e+00 3.37700e+00
 1.97000e-01 1.13090e+01 4.39800e+00
-5.89000e-01 1.13500e+01 4.29400e+00
-7.18000e-01 2.67000e+00 3.27200e+00
 7.18000e-01 2.67000e+00 3.27200e+00
 5.89000e-01 1.13500e+01 4.29400e+00
-9.74000e-01 1.14380e+01 4.07500e+00
-1.09200e+00 2.67000e+00 3.04900e+00
 1.09200e+00 2.67000e+00 3.04900e+00
 9.74000e-01 1.14380e+01 4.07500e+00
-1.29800e+00 1.15660e+01 3.75400e+00
-1.40700e+00 2.67000e+00 2.72500e+00
 1.40700e+00 2.67000e+00 2.72500e+00
 1.29800e+00 1.15660e+01 3.75400e+00
-1.48900e+00 1.16970e+01 3.42800e+00
-1.57100e+00 2.67000e+00 2.43500e+00
 1.57100e+00 2.67000e+00 2.43500e+00
 1.48900e+00 1.16970e+01 3.42800e+00
-1.57100e+00 1.18180e+01 3.12600e+00
 1.57100e+00 1.18180e+01 3.12600e+00
-1.57100e+00 1.20940e+01 2.43500e+00
 1.57100e+00 1.20940e+01 2.43500e+00
 1.96000e-01 1.61780e+01 4.12300e+00
 1.96000e-01 1.59740e+01 4.17500e+00
-1.96000e-01 1.59740e+01 4.17500e+00
-1.96000e-01 1.61780e+01 4.12300e+00
 1.96000e-01 1.61780e+01 4.12300e+00
 5.89000e-01 1.61780e+01 4.01800e+00
 5.89000e-01 1.59740e+01 4.07000e+00
 1.96000e-01 1.59740e+01 4.17500e+00
-1.96000e-01 1.61780e+01 4.12300e+00
-1.96000e-01 1.59740e+01 4.17500e+00
-5.89000e-01 1.59740e+01 4.07000e+00
-5.89000e-01 1.61780e+01 4.01800e+00
 9.74000e-01 1.61780e+01 3.79600e+00
 9.74000e-01 1.59740e+01 3.84700e+00
-9.74000e-01 1.59740e+01 3.84700e+00
-9.74000e-01 1.61780e+01 3.79600e+00
 1.29800e+00 1.61780e+01 3.47100e+00
 1.29800e+00 1.59740e+01 3.52300e+00
-1.29800e+00 1.59740e+01 3.52300e+00
-1.29800e+00 1.61780e+01 3.47100e+00
 1.48900e+00 1.61780e+01 3.14100e+00
 1.48900e+00 1.59740e+01 3.19300e+00
-1.48900e+00 1.59740e+01 3.19300e+00
-1.48900e+00 1.61780e+01 3.14100e+00
 1.57100e+00 1.61780e+01 2.83500e+00
 1.57100e+00 1.59740e+01 2.88700e+00
-1.57100e+00 1.59740e+01 2.88700e+00
-1.57100e+00 1.61780e+01 2.83500e+00
 1.57100e+00 1.61780e+01 2.43500e+00
 1.57100e+00 1.59740e+01 2.43500e+00
-1.57100e+00 1.59740e+01 2.43500e+00
-1.57100e+00 1.61780e+01 2.43500e+00
-1.96000e-01 2.04190e+01 2.43500e+00
-5.89000e-01 2.01550e+01 2.43500e+00
-9.74000e-01 1.95970e+01 2.43500e+00
-1.29800e+00 1.87820e+01 2.43500e+00
 1.29800e+00 1.87820e+01 2.43500e+00
 9.74000e-01 1.95970e+01 2.43500e+00
 5.89000e-01 2.01550e+01 2.43500e+00
 1.96000e-01 2.04190e+01 2.43500e+00
-1.48900e+00 1.79530e+01 2.43500e+00
-1.57100e+00 1.71850e+01 2.43500e+00
 1.57100e+00 1.71850e+01 2.43500e+00
 1.48900e+00 1.79530e+01 2.43500e+00
-1.57100e+00 1.38220e+01 2.43500e+00
 1.57100e+00 1.38220e+01 2.43500e+00
 1.57100e+00 1.20940e+01 2.43500e+00
-1.57100e+00 1.18180e+01 3.12600e+00
-1.48900e+00 1.16970e+01 3.42800e+00
-1.29800e+00 1.15660e+01 3.75400e+00
-9.74000e-01 1.14380e+01 4.07500e+00
-5.89000e-01 1.13500e+01 4.29400e+00
-1.97000e-01 1.13090e+01 4.39800e+00
 1.97000e-01 1.13090e+01 4.39800e+00
 5.89000e-01 1.13500e+01 4.29400e+00
 9.74000e-01 1.14380e+01 4.07500e+00
 1.29800e+00 1.15660e+01 3.75400e+00
 1.48900e+00 1.16970e+01 3.42800e+00
 1.57100e+00 1.18180e+01 3.12600e+00
-1.93000e-01 1.59740e+01 4.17500e+00
-1.96000e-01 1.38220e+01 4.47600e+00
 1.96000e-01 1.38220e+01 4.47600e+00
-5.89000e-01 1.38220e+01 4.37100e+00
 5.89000e-01 1.38220e+01 4.37100e+00
-9.74000e-01 1.38220e+01 4.14900e+00
 9.74000e-01 1.38220e+01 4.14900e+00
-1.29800e+00 1.38220e+01 3.82500e+00
 1.29800e+00 1.38220e+01 3.82500e+00
-1.48900e+00 1.38220e+01 3.49500e+00
 1.48900e+00 1.38220e+01 3.49500e+00
-1.57100e+00 1.38220e+01 3.18900e+00
 1.57100e+00 1.38220e+01 3.18900e+00
 0.00000e+00 3.32980e+01 2.36000e-01
 1.57000e-01 3.32980e+01 1.45000e-01
 0.00000e+00 3.32980e+01 0.00000e+00
-1.57000e-01 3.32980e+01 1.45000e-01
 7.78000e-01 3.12570e+01 2.50000e-01
 7.78000e-01 3.12570e+01 1.70000e-01
 1.25700e+00 2.89000e+01 3.65000e-01
 1.25700e+00 2.89000e+01 2.05000e-01
 0.00000e+00 3.12570e+01 9.03000e-01
 3.14000e-01 3.12570e+01 8.40000e-01
-3.14000e-01 3.12570e+01 8.40000e-01
-5.89000e-01 3.12570e+01 6.81000e-01
 5.89000e-01 3.12570e+01 6.81000e-01
 7.78000e-01 3.12570e+01 3.53000e-01
-7.78000e-01 3.12570e+01 3.53000e-01
 7.78000e-01 3.12570e+01 0.00000e+00
-7.78000e-01 3.12570e+01 0.00000e+00
-6.06000e-01 3.12570e+01-2.67000e-01
 6.06000e-01 3.12570e+01-2.67000e-01
 3.30000e-01 3.12570e+01-4.26000e-01
-3.30000e-01 3.12570e+01-4.26000e-01
 1.63000e-01 3.12570e+01-4.71000e-01
-1.63000e-01 3.12570e+01-4.71000e-01
-1.57000e-01 2.89000e+01 1.45300e+00
 1.57000e-01 2.89000e+01 1.45300e+00
 4.87000e-01 2.89000e+01 1.36500e+00
-4.87000e-01 2.89000e+01 1.36500e+00
 9.11000e-01 2.89000e+01 1.12000e+00
-9.11000e-01 2.89000e+01 1.12000e+00
 1.25700e+00 2.89000e+01 5.21000e-01
-1.25700e+00 2.89000e+01 5.21000e-01
 1.25700e+00 2.89000e+01 0.00000e+00
-1.25700e+00 2.89000e+01 0.00000e+00
 9.57000e-01 2.89000e+01-5.18000e-01
-9.57000e-01 2.89000e+01-5.18000e-01
 5.18000e-01 2.89000e+01-7.72000e-01
-5.18000e-01 2.89000e+01-7.72000e-01
 1.75000e-01 2.89000e+01-8.64000e-01
-1.75000e-01 2.89000e+01-8.64000e-01
-2.36000e-01 2.63090e+01 1.84600e+00
 2.36000e-01 2.63090e+01 1.84600e+00
 7.54000e-01 2.63090e+01 1.70700e+00
-7.54000e-01 2.63090e+01 1.70700e+00
 1.19400e+00 2.63090e+01 1.45300e+00
-1.19400e+00 2.63090e+01 1.45300e+00
 1.57100e+00 2.63090e+01 8.00000e-01
-1.57100e+00 2.63090e+01 8.00000e-01
 1.57100e+00 2.63090e+01 0.00000e+00
-1.57100e+00 2.63090e+01 0.00000e+00
 1.21700e+00 2.63090e+01-6.91000e-01
-1.21700e+00 2.63090e+01-6.91000e-01
 7.54000e-01 2.63090e+01-9.58000e-01
-7.54000e-01 2.63090e+01-9.58000e-01
 2.28000e-01 2.63090e+01-1.09900e+00
-2.28000e-01 2.63090e+01-1.09900e+00
-3.46000e-01 2.04190e+01 2.43500e+00
 3.46000e-01 2.04190e+01 2.43500e+00
 9.42000e-01 2.04190e+01 2.27500e+00
-9.42000e-01 2.04190e+01 2.27500e+00
 1.53100e+00 2.04190e+01 1.93500e+00
-1.53100e+00 2.04190e+01 1.93500e+00
 1.88500e+00 2.04190e+01 1.32200e+00
-1.88500e+00 2.04190e+01 1.32200e+00
 1.88500e+00 2.04190e+01-5.50000e-01
-1.88500e+00 2.04190e+01-5.50000e-01
 1.63100e+00 2.04190e+01-9.90000e-01
-1.63100e+00 2.04190e+01-9.90000e-01
 1.16200e+00 2.04190e+01-1.26000e+00
-1.16200e+00 2.04190e+01-1.26000e+00
 5.89000e-01 2.04190e+01-1.41400e+00
-5.89000e-01 2.04190e+01-1.41400e+00
-1.88500e+00 1.61780e+01 1.89000e+00
 1.88500e+00 1.61780e+01 1.89000e+00
 1.88500e+00 1.61780e+01-6.28000e-01
-1.88500e+00 1.61780e+01-6.28000e-01
 1.61300e+00 1.61780e+01-1.09900e+00
-1.61300e+00 1.61780e+01-1.09900e+00
 1.14700e+00 1.61780e+01-1.36900e+00
-1.14700e+00 1.61780e+01-1.36900e+00
 6.86000e-01 1.61780e+01-1.49200e+00
-6.86000e-01 1.61780e+01-1.49200e+00
 1.57100e+00 1.31940e+01 2.43500e+00
 1.88500e+00 1.31940e+01 1.89000e+00
-1.88500e+00 1.31940e+01 1.89000e+00
-1.57100e+00 1.31940e+01 2.43500e+00
 1.88500e+00 1.31940e+01-7.07000e-01
-1.88500e+00 1.31940e+01-7.07000e-01
 1.62200e+00 1.31940e+01-1.16200e+00
-1.62200e+00 1.31940e+01-1.16200e+00
 1.14700e+00 1.31940e+01-1.43700e+00
-1.14700e+00 1.31940e+01-1.43700e+00
 6.47000e-01 1.31940e+01-1.57100e+00
-6.47000e-01 1.31940e+01-1.57100e+00
 1.57100e+00 2.67000e+00 2.43500e+00
-1.57100e+00 2.67000e+00 2.43500e+00
 1.57100e+00 2.67000e+00-2.35600e+00
-1.57100e+00 2.67000e+00-2.35600e+00
 1.40700e+00 0.00000e+00 2.51200e+00
 2.51900e+00 0.00000e+00 2.51200e+00
 2.51300e+00 2.67000e+00 2.43500e+00
-3.37000e-01 2.67000e+00 3.37700e+00
-3.37000e-01 0.00000e+00 3.16400e+00
 3.37000e-01 0.00000e+00 3.16400e+00
 3.37000e-01 2.67000e+00 3.37700e+00
-7.18000e-01 2.67000e+00 3.27200e+00
-7.18000e-01 0.00000e+00 3.05800e+00
 7.18000e-01 0.00000e+00 3.05800e+00
 7.18000e-01 2.67000e+00 3.27200e+00
-1.09200e+00 2.67000e+00 3.04900e+00
-1.09200e+00 0.00000e+00 2.83500e+00
 1.09200e+00 0.00000e+00 2.83500e+00
 1.09200e+00 2.67000e+00 3.04900e+00
-1.40700e+00 2.67000e+00 2.72500e+00
-1.40700e+00 0.00000e+00 2.51200e+00
 1.40700e+00 2.67000e+00 2.72500e+00
-2.51300e+00 2.67000e+00 2.43500e+00
-2.51900e+00 0.00000e+00 2.51200e+00
 3.37700e+00 2.67000e+00 2.43500e+00
-3.37700e+00 2.67000e+00 2.43500e+00
 3.06900e+00 0.00000e+00 2.19400e+00
 3.73000e+00 2.67000e+00 2.23100e+00
-3.73000e+00 2.67000e+00 2.23100e+00
-3.06900e+00 0.00000e+00 2.19400e+00
 3.30600e+00 0.00000e+00 1.78500e+00
 3.84800e+00 2.67000e+00 2.02600e+00
-3.84800e+00 2.67000e+00 2.02600e+00
-3.30600e+00 0.00000e+00 1.78500e+00
 3.30600e+00 0.00000e+00-1.89500e+00
 3.84800e+00 2.67000e+00-1.80600e+00
-3.84800e+00 2.67000e+00-1.80600e+00
-3.30600e+00 0.00000e+00-1.89500e+00
 3.22100e+00 0.00000e+00-2.21000e+00
-3.22100e+00 0.00000e+00-2.21000e+00
 3.62100e+00 2.67000e+00-2.19900e+00
-3.62100e+00 2.67000e+00-2.19900e+00
 3.06400e+00 0.00000e+00-2.36700e+00
-3.06400e+00 0.00000e+00-2.36700e+00
 2.51900e+00 0.00000e+00-2.51300e+00
-2.51900e+00 0.00000e+00-2.51300e+00
 3.34900e+00 2.67000e+00-2.35600e+00
-3.34900e+00 2.67000e+00-2.35600e+00
 2.51300e+00 2.67000e+00-2.35600e+00
-2.51300e+00 2.67000e+00-2.35600e+00
 6.28000e-01-5.96900e+00 2.74900e+00
 9.42000e-01-5.96900e+00 2.74900e+00
-6.28000e-01-5.96900e+00 2.74900e+00
-9.42000e-01-5.96900e+00 2.74900e+00
 1.64900e+00-5.96900e+00 2.55900e+00
-1.64900e+00-5.96900e+00 2.55900e+00
 2.35600e+00-5.96900e+00 2.15100e+00
-2.35600e+00-5.96900e+00 2.15100e+00
 2.67000e+00-5.96900e+00 1.60700e+00
-2.67000e+00-5.96900e+00 1.60700e+00
 2.67000e+00-5.96900e+00-1.72800e+00
-2.67000e+00-5.96900e+00-1.72800e+00
 2.60700e+00-5.96900e+00-1.96300e+00
-2.60700e+00-5.96900e+00-1.96300e+00
 2.23800e+00-5.96900e+00-2.33200e+00
-2.23800e+00-5.96900e+00-2.33200e+00
 1.27000e+00-5.96900e+00-2.59200e+00
-1.27000e+00-5.96900e+00-2.59200e+00
-3.53000e-01-1.42930e+01 2.43500e+00
 3.53000e-01-1.42930e+01 2.43500e+00
 1.21700e+00-1.42930e+01 2.20300e+00
-1.21700e+00-1.42930e+01 2.20300e+00
 1.92400e+00-1.42930e+01 1.79500e+00
-1.92400e+00-1.42930e+01 1.79500e+00
 2.27700e+00-1.42930e+01 1.18300e+00
-2.27700e+00-1.42930e+01 1.18300e+00
 2.27700e+00-1.42930e+01-1.41400e+00
-2.27700e+00-1.42930e+01-1.41400e+00
 2.19300e+00-1.42930e+01-1.72800e+00
-2.19300e+00-1.42930e+01-1.72800e+00
 1.88500e+00-1.42930e+01-2.03600e+00
-1.88500e+00-1.42930e+01-2.03600e+00
 3.98000e-01-1.42930e+01-2.43500e+00
-3.98000e-01-1.42930e+01-2.43500e+00
-3.14000e-01-2.41880e+01 1.57100e+00
 3.14000e-01-2.41880e+01 1.57100e+00
 7.46000e-01-2.41880e+01 1.45500e+00
-7.46000e-01-2.41880e+01 1.45500e+00
 1.41400e+00-2.41880e+01 1.07000e+00
-1.41400e+00-2.41880e+01 1.07000e+00
 1.80600e+00-2.41880e+01 3.89000e-01
-1.80600e+00-2.41880e+01 3.89000e-01
 1.80600e+00-2.41880e+01-9.42000e-01
-1.80600e+00-2.41880e+01-9.42000e-01
 1.72800e+00-2.41880e+01-1.23600e+00
-1.72800e+00-2.41880e+01-1.23600e+00
 1.25600e+00-2.41880e+01-1.70700e+00
-1.25600e+00-2.41880e+01-1.70700e+00
 5.94000e-01-2.41880e+01-1.88500e+00
-5.94000e-01-2.41880e+01-1.88500e+00
-1.51000e-01-2.67020e+01 9.74000e-01
 1.51000e-01-2.67020e+01 9.74000e-01
 4.52000e-01-2.67020e+01 8.93000e-01
-4.52000e-01-2.67020e+01 8.93000e-01
 7.09000e-01-2.67020e+01 7.45000e-01
-7.09000e-01-2.67020e+01 7.45000e-01
 9.25000e-01-2.67020e+01 5.28000e-01
-9.25000e-01-2.67020e+01 5.28000e-01
 1.06400e+00-2.67020e+01 2.88000e-01
-1.06400e+00-2.67020e+01 2.88000e-01
 1.14100e+00-2.67020e+01 0.00000e+00
-1.14100e+00-2.67020e+01 0.00000e+00
 1.14100e+00-2.67020e+01-3.00000e-01
-1.14100e+00-2.67020e+01-3.00000e-01
 1.06400e+00-2.67020e+01-5.87000e-01
-1.06400e+00-2.67020e+01-5.87000e-01
 9.16000e-01-2.67020e+01-8.43000e-01
-9.16000e-01-2.67020e+01-8.43000e-01
 6.90000e-01-2.67020e+01-1.07000e+00
-6.90000e-01-2.67020e+01-1.07000e+00
 4.52000e-01-2.67020e+01-1.20700e+00
-4.52000e-01-2.67020e+01-1.20700e+00
 1.49000e-01-2.67020e+01-1.28800e+00
-1.49000e-01-2.67020e+01-1.28800e+00
 0.00000e+00-1.42930e+01 0.00000e+00
 2.51300e+00 1.13090e+01 0.00000e+00
 1.81300e+00 1.13090e+01 0.00000e+00
 3.67100e+00 5.81200e+00 2.27700e+00
 2.68900e+00 5.81200e+00 2.27700e+00
 3.78400e+00 5.81200e+00 2.21300e+00
 3.84800e+00 5.81200e+00 2.10100e+00
 3.84800e+00 5.81200e+00-1.78700e+00
 3.84800e+00 9.42400e+00-1.00100e+00
 3.78300e+00 5.81200e+00-1.89900e+00
 3.67200e+00 5.81200e+00-1.96300e+00
 2.69000e+00 5.81200e+00-1.96300e+00
 2.57700e+00 5.81200e+00-1.89900e+00
 2.51300e+00 5.81200e+00-1.78700e+00
 2.51300e+00 9.42400e+00-1.00200e+00
 2.51300e+00 5.81200e+00 2.10100e+00
 2.57800e+00 5.81200e+00 2.21300e+00
 3.78300e+00 9.42400e+00-1.11400e+00
 3.67200e+00 9.42400e+00-1.17800e+00
 2.69000e+00 9.42400e+00-1.17800e+00
 2.57700e+00 9.42400e+00-1.11300e+00
 3.69100e+00 1.27220e+01 1.80600e+00
 2.67000e+00 1.27220e+01 1.80600e+00
 3.84800e+00 1.26920e+01 1.64900e+00
 3.84800e+00 1.22510e+01-6.28000e-01
 3.69100e+00 1.22210e+01-7.85000e-01
 2.67000e+00 1.22210e+01-7.85000e-01
 2.51300e+00 1.22510e+01-6.28000e-01
 2.51300e+00 1.26920e+01 1.64900e+00
 2.59200e+00 1.22360e+01-7.07000e-01
 2.59200e+00 1.24170e+01-6.68000e-01
 2.59200e+00 1.27710e+01-5.65000e-01
 2.59200e+00 1.29280e+01-4.45000e-01
 2.59200e+00 1.32720e+01 1.33500e+00
 2.59200e+00 1.31940e+01 1.57100e+00
 2.59200e+00 1.29970e+01 1.69600e+00
 2.59200e+00 1.27070e+01 1.72800e+00
-1.81300e+00 1.13090e+01 0.00000e+00
-2.51300e+00 1.13090e+01 0.00000e+00
-3.67100e+00 5.81200e+00 2.27700e+00
-2.68900e+00 5.81200e+00 2.27700e+00
-3.78400e+00 5.81200e+00 2.21300e+00
-3.84800e+00 5.81200e+00 2.10100e+00
-3.84800e+00 9.42400e+00-1.00100e+00
-3.84800e+00 5.81200e+00-1.78700e+00
-3.78300e+00 5.81200e+00-1.89900e+00
-3.67200e+00 5.81200e+00-1.96300e+00
-2.69000e+00 5.81200e+00-1.96300e+00
-2.57700e+00 5.81200e+00-1.89900e+00
-2.51300e+00 5.81200e+00-1.78700e+00
-2.51300e+00 9.42400e+00-1.00200e+00
-2.51300e+00 5.81200e+00 2.10100e+00
-2.57800e+00 5.81200e+00 2.21300e+00
-3.78300e+00 9.42400e+00-1.11400e+00
-3.67200e+00 9.42400e+00-1.17800e+00
-2.69000e+00 9.42400e+00-1.17800e+00
-2.57700e+00 9.42400e+00-1.11300e+00
-3.69100e+00 1.27220e+01 1.80600e+00
-2.67000e+00 1.27220e+01 1.80600e+00
-3.84800e+00 1.26920e+01 1.64900e+00
-3.84800e+00 1.22510e+01-6.28000e-01
-3.69100e+00 1.22210e+01-7.85000e-01
-2.67000e+00 1.22210e+01-7.85000e-01
-2.51300e+00 1.22510e+01-6.28000e-01
-2.51300e+00 1.26920e+01 1.64900e+00
-2.59200e+00 1.27070e+01 1.72800e+00
-2.59200e+00 1.29970e+01 1.69600e+00
-2.59200e+00 1.31940e+01 1.57100e+00
-2.59200e+00 1.32720e+01 1.33500e+00
-2.59200e+00 1.29280e+01-4.45000e-01
-2.59200e+00 1.27710e+01-5.65000e-01
-2.59200e+00 1.24170e+01-6.68000e-01
-2.59200e+00 1.22360e+01-7.07000e-01
 4.86900e+00-1.75034e+01-8.48600e-01
-4.86900e+00-1.75034e+01-8.48600e-01
 3.84800e+00 5.27760e+00-9.34000e-02
 2.51300e+00 5.27760e+00-1.21800e-01
-3.84800e+00 5.27760e+00-9.34000e-02
-2.51300e+00 5.27760e+00-1.21800e-01
part 1
x29 shell
tria3
     209
       2       2      16
       2      16       4
       2       4      16
       4      16       7
       4       8      16
      16      17       7
      16       8      17
      17      11       7
      17       8      12
      17      15      11
      17      12      15
      28      30      29
      29      30      24
      43      45      44
      45      37      44
      46      23      47
      69      70      72
      72      70      73
      74      76      75
      95      96      94
      96      97      94
      98     100      99
     100     101      99
     105     112     104
     102     121     101
     123     125     124
     124     125     126
     127     128     137
     130     126     147
     221     222     225
     224     226     223
     225     222     227
     226     228     223
     270     256     260
     271     257     253
     302     306     305
     301     309     309
     301     310     309
     301     309     311
     302     314     313
     304     312     315
     302     316     314
     304     315     317
     304     317     318
     303     322     320
     303     321     323
     303     323     322
     270     260     372
     271     373     257
     362     373     271
     363     270     372
     356     261     262
     357     267     268
     356     262     359
     357     358     267
     359     262     263
     358     266     267
     359     263     361
     358     360     266
     361     263     264
     360     265     266
     361     264     269
     360     272     265
     361     269     363
     360     362     272
     363     269     270
     362     271     272
     382     383     394
     385     395     384
     386     388     396
     387     397     389
     388     390     396
     389     397     391
     390     392     396
     391     397     393
     413     414     395
     415     394     398
     400     418     399
     416     417     419
     429     432     428
     430     431     433
     429     434     432
     430     433     435
     434     436     432
     435     433     437
     434     438     436
     435     437     439
     434     440     438
     435     439     441
     440     442     438
     441     439     443
     442     396     438
     443     439     397
     402     446     406
     403     407     444
     406     446     410
     407     411     444
     410     446     414
     411     398     444
     399     448     445
     417     447     449
     447     446     462
     445     463     444
     482     500     498
     483     499     501
     484     504     502
     485     503     505
     488     510     508
     489     509     511
     490     514     512
     491     513     515
     495     518     494
     496     518     495
     494     518     497
     498     518     496
     497     518     499
     500     518     498
     499     518     501
     502     518     500
     501     518     503
     504     518     502
     503     518     505
     506     518     504
     505     518     507
     508     518     506
     507     518     509
     510     518     508
     509     518     511
     512     518     510
     511     518     513
     514     518     512
     513     518     515
     516     518     514
     515     518     517
     517     518     516
     529     530     442
     530     531     442
     533     534     400
     534     522     400
     539     523     521
     539     541     523
     541     524     523
     542     535     526
     542     543     535
     543     536     535
     544     538     537
     544     545     538
     545     532     538
     546     534     533
     546     540     534
     540     522     534
     554     546     553
     553     546     552
     552     546     551
     550     545     549
     549     545     548
     548     545     547
     565     443     566
     566     443     567
     569     416     570
     570     416     558
     575     557     559
     575     559     577
     577     559     560
     578     561     571
     578     571     579
     579     571     572
     580     573     574
     580     574     581
     581     574     568
     582     569     570
     582     570     576
     576     570     558
     583     584     582
     584     585     582
     585     586     582
     587     588     581
     588     589     581
     589     590     581
      24      25     591
      25      18     591
      18      19     591
      19      22     591
      22      24     591
      36      34     592
      34      42     592
      42      40     592
      40      37     592
      37      36     592
     429     425     593
     425     524     593
     524     526     593
     526     525     593
     525     429     593
     442     531     594
     531     532     594
     532     533     594
     533     400     594
     400     442     594
     562     561     595
     561     560     595
     560     426     595
     426     430     595
     430     562     595
     416     569     596
     569     568     596
     568     567     596
     567     443     596
     443     416     596
quad4
     342
       2       1       1       2
       3       1       2       4
       2       1       5       4
       6       3       4       7
       4       5       9       8
      10       6       7      11
       8       9      13      12
      14      10      11      15
      12      13      14      15
      19      18      21      20
      22      19      20      23
      25      24      27      26
      18      25      26      21
      32      31      34      33
      33      34      36      35
      38      37      40      39
      39      40      42      41
      48      22      47      49
      50      48      49      51
      52      50      54      53
      56      55      58      57
      59      56      57      60
      61      59      60      62
      63      61      62      64
      65      63      67      66
      69      68      71      70
      76      74      78      77
      77      78      80      79
      79      80      82      81
      81      82      84      83
      83      84      86      85
      85      86      88      87
      89      88      91      90
      90      91      93      92
      92      93      95      94
     104     112      22      48
     100      98     114     113
     105     100     113     112
     103     104      48      50
     111     103      50      52
     110     111      52     115
     109     110     115     116
     108     109     116     117
     107     108     117     118
     106     107     118     119
     102     106     119     120
     121     102     120      24
      99     101     121     122
      98      99     122     114
     138     137     128     139
     140     123     124     141
     141     124     127     137
     139     128     129     142
     142     129     131     143
     143     131     132     144
     144     132     133     145
     145     133     134     146
     146     134     135      91
      91     135     136      93
      93     136     130      95
      95     130     147      96
     147     126     125     148
     148     125     123     140
     150     149     152     151
     149     153     154     152
     153     155     156     154
     155     157     158     156
     159     150     151     160
     161     159     160     162
     163     161     162     164
     166     165     168     167
     176     175     178     177
     179     176     177     180
     181     179     180     182
     184     183     186     185
     188     187     190     189
     187     191     192     190
     191     193     194     192
     193     184     185     194
     113     114      28      29
     112     113      29      22
     122     121      24      30
     114     122      30      28
     201     140     141     202
     202     141     137     138
      96     147     148     203
     203     148     204     201
     206     205     208     207
     209     205     206     210
     207     208     212     211
     213     209     210     214
     211     212     216     215
     217     213     214     218
     215     216     220     219
     221     217     218     222
     219     220     224     223
     230     229     232     231
     234     233     236     235
     238     237     240     239
     241     234     235     242
     239     240     244     243
     245     241     242     246
     243     244     248     247
     249     245     246     250
     247     248     252     251
     253     249     250     254
     251     252     256     255
     257     253     254     258
     255     256     260     259
     259     260     257     258
     273     259     258     274
     227     273     274     275
     289     288     236     290
     239     238     289     291
     290     236     235     292
     243     239     291     293
     292     235     242     294
     247     243     293     295
     294     242     246     296
     251     247     295     297
     296     246     250     298
     255     251     297     299
     298     250     254     300
     259     255     299     273
     300     254     258     274
     281     289     290     282
     291     289     281     280
     282     290     292     283
     293     291     280     279
     283     292     294     284
     295     293     279     278
     284     294     296     285
     297     295     278     277
     285     296     298     286
     299     297     277     276
     286     298     300     287
     273     299     276     227
     287     300     274     275
     237     261     268     233
     262     261     237     240
     233     268     267     234
     263     262     240     244
     234     267     266     241
     264     263     244     248
     241     266     265     245
     269     264     248     252
     245     265     272     249
     270     269     252     256
     249     272     271     253
     302     301     304     303
     307     305     306     308
     304     301     311     312
     310     301     302     313
     319     302     303     320
     303     304     318     321
     324     309     309     325
     325     309     310     326
     311     309     324     327
     326     310     313     328
     312     311     327     329
     328     313     314     330
     315     312     329     331
     330     314     316     332
     317     315     331     333
     332     316     319     334
     318     317     333     335
     334     319     320     336
     321     318     335     337
     336     320     322     338
     323     321     337     339
     338     322     323     339
     340     324     325     341
     341     325     326     342
     327     324     340     343
     342     326     328     344
     329     327     343     345
     344     328     330     346
     331     329     345     347
     346     330     332     348
     333     331     347     349
     348     332     334     350
     335     333     349     351
     350     334     336     352
     337     335     351     353
     352     336     338     354
     339     337     353     355
     354     338     339     355
     340     341     357     356
     357     341     342     358
     343     340     356     359
     358     342     344     360
     345     343     359     361
     360     344     346     362
     347     345     361     363
     362     346     348     364
     349     347     363     365
     364     348     350     366
     351     349     365     367
     366     350     352     368
     353     351     367     369
     368     352     354     370
     355     353     369     371
     370     354     355     371
     373     362     364     374
     365     363     372     375
     374     364     366     376
     367     365     375     377
     376     366     368     378
     369     367     377     379
     378     368     370     380
     371     369     379     381
     380     370     371     381
     382     257     373     383
     372     260     385     384
     383     373     374     386
     375     372     384     387
     386     374     376     388
     377     375     387     389
     388     376     378     390
     379     377     389     391
     390     378     380     392
     381     379     391     393
     380     381     393     392
     394     383     386     396
     387     384     395     397
     396     392     393     397
     398     394     400     399
     402     401     404     403
     405     401     402     406
     403     404     408     407
     409     405     406     410
     407     408     412     411
     413     409     410     414
     411     412     415     398
     416     395     414     417
     399     418     421     420
     422     419     417     423
     420     421     425     424
     426     422     423     427
     424     425     429     428
     430     426     427     431
     438     396     397     439
     444     398     399     445
     446     402     403     444
     417     414     446     447
     448     399     420     450
     423     417     449     451
     450     420     424     452
     427     423     451     453
     452     424     428     454
     431     427     453     455
     454     428     432     456
     433     431     455     457
     456     432     436     458
     437     433     457     459
     458     436     438     460
     439     437     459     461
     460     438     439     461
     446     444     463     462
     463     445     448     464
     449     447     462     465
     464     448     450     466
     451     449     465     467
     466     450     452     468
     453     451     467     469
     468     452     454     470
     455     453     469     471
     470     454     456     472
     457     455     471     473
     472     456     458     474
     459     457     473     475
     474     458     460     476
     461     459     475     477
     476     460     461     477
     478     462     463     479
     479     463     464     480
     465     462     478     481
     480     464     466     482
     467     465     481     483
     482     466     468     484
     469     467     483     485
     484     468     470     486
     471     469     485     487
     486     470     472     488
     473     471     487     489
     488     472     474     490
     475     473     489     491
     490     474     476     492
     477     475     491     493
     492     476     477     493
     494     478     479     495
     495     479     480     496
     481     478     494     497
     496     480     482     498
     483     481     497     499
     500     482     484     502
     485     483     501     503
     504     484     486     506
     487     485     505     507
     506     486     488     508
     489     487     507     509
     510     488     490     512
     491     489     511     513
     514     490     492     516
     493     491     515     517
     516     492     493     517
     400     394     520     519
     520     396     442     519
     522     521     418     400
     418     521     523     421
     421     523     524     425
     429     525     527     434
     434     527     528     440
     440     528     529     442
     525     526     535     527
     527     535     536     528
     528     536     537     529
     529     537     538     530
     530     538     532     531
     540     539     521     522
     524     541     542     526
     536     543     544     537
     532     545     546     533
     551     546     545     550
     555     395     416     556
     443     397     555     556
     419     557     558     416
     559     557     419     422
     560     559     422     426
     563     562     430     435
     564     563     435     441
     565     564     441     443
     571     561     562     563
     572     571     563     564
     573     572     564     565
     574     573     565     566
     568     574     566     567
     557     575     576     558
     578     577     560     561
     580     579     572     573
     582     581     568     569
     581     582     586     587
tria6
       2
     103     102     101     100     105     104
     129     128     127     124     126     130
quad8
      12
     109     108     107     106     102     103     111     110
     135     134     133     132     131     129     130     136
     172     167     168     171     170     169     174     173
     198     197     186     196     195     189     200     199
     266     265     264     263     262     261     268     267
     271     257     260     270     269     264     265     272
     280     279     278     277     276     227     282     281
     287     286     285     284     283     282     227     275
     545     544     543     542     541     539     540     546
     552     551     550     549     548     547     554     553
     578     579     580     581     582     576     575     577
     588     587     586     585     584     583     590     589
