// Copyright (C) 2006-2011  CEA/DEN, EDF R&D
//
// This library is free software; you can redistribute it and/or
// modify it under the terms of the GNU Lesser General Public
// License as published by the Free Software Foundation; either
// version 2.1 of the License.
//
// This library is distributed in the hope that it will be useful,
// but WITHOUT ANY WARRANTY; without even the implied warranty of
// MERCHANTABILITY or FITNESS FOR A PARTICULAR PURPOSE.  See the GNU
// Lesser General Public License for more details.
//
// You should have received a copy of the GNU Lesser General Public
// License along with this library; if not, write to the Free Software
// Foundation, Inc., 59 Temple Place, Suite 330, Boston, MA  02111-1307 USA
//
// See http://www.salome-platform.org/ or email : webmaster.salome@opencascade.com
//

%define DOCSTRING
"All is needed to create and execute a calculation schema."
%enddef

%module(docstring=DOCSTRING) pilot

#ifndef SWIGIMPORTED
//work around SWIG bug #1863647
#if SWIG_VERSION >= 0x010336
#define SwigPyIterator pilot_PySwigIterator
#else
#define PySwigIterator pilot_PySwigIterator
#endif
#endif

%feature("autodoc", "1");

%include "engtypemaps.i"

#ifdef DOXYGEN_IS_OK
%include docengine.i
#endif

%{
#include "Any.hxx"
#include "TypeCode.hxx"
#include "ComponentDefinition.hxx"
#include "Visitor.hxx"
#include "VisitorSaveSchema.hxx"
#include "VisitorSaveState.hxx"
#include "LinkInfo.hxx"
#include "Catalog.hxx"
#include "Executor.hxx"
#include "ExecutorSwig.hxx"
#include "Dispatcher.hxx"
#include "Container.hxx"
#include "Logger.hxx"
#include "DeploymentTree.hxx"
#include "ComponentInstance.hxx"
#include "DataNode.hxx"

using namespace YACS::ENGINE;

%}

%init
%{
  // init section
#ifdef OMNIORB
  PyObject* omnipy = PyImport_ImportModule((char*)"_omnipy");
  if (!omnipy)
  {
    PyErr_SetString(PyExc_ImportError,(char*)"Cannot import _omnipy");
    return;
  }
  PyObject* pyapi = PyObject_GetAttrString(omnipy, (char*)"API");
  api = (omniORBPYAPI*)PyCObject_AsVoidPtr(pyapi);
  Py_DECREF(pyapi);
#endif
%}

%ignore YACS::ENGINE::Any::operator[];
%ignore YACS::ENGINE::TypeCode::operator=;
%ignore YACS::ENGINE::DeploymentTree::operator=;
%ignore operator<<;
%ignore YACS::ENGINE::Runtime::_tc_double;
%ignore YACS::ENGINE::Runtime::_tc_int;
%ignore YACS::ENGINE::Runtime::_tc_bool;
%ignore YACS::ENGINE::Runtime::_tc_string;
%ignore YACS::ENGINE::Runtime::_tc_file;
%rename(StateLoader) YACS::ENGINE::StateLoader; // to suppress a 503 warning
%rename(NbDoneLoader) YACS::ENGINE::NbDoneLoader; // to suppress a 503 warning
%rename(getRuntime) YACS::ENGINE::getRuntime; // to suppress a 503 warning
%rename(_from) YACS::ENGINE::DataLinkInfo::from ; // to suppress a 314 warning
%rename(_from) YACS::ENGINE::StreamLinkInfo::from ; // to suppress a 314 warning

/*
 * Template section
 */
%template()              std::pair<std::string, YACS::ENGINE::TypeCode *>;
%template()              std::pair<std::string, YACS::ENGINE::Node *>;
%template()              std::pair<std::string, YACS::ENGINE::InlineNode *>;
%template()              std::pair<std::string, YACS::ENGINE::ServiceNode *>;
%template()              std::pair<std::string, YACS::ENGINE::Container *>;
%template()              std::pair<YACS::ENGINE::OutPort *,YACS::ENGINE::InPort *>;
%template()              std::pair<YACS::ENGINE::InPort *,YACS::ENGINE::OutPort *>;
//%template(TCmap)         std::map<std::string, YACS::ENGINE::TypeCode *>;
REFCOUNT_TEMPLATE(TCmap,YACS::ENGINE::TypeCode)
%template(NODEmap)       std::map<std::string, YACS::ENGINE::Node *>;
%template(INODEmap)      std::map<std::string, YACS::ENGINE::InlineNode *>;
%template(SNODEmap)      std::map<std::string, YACS::ENGINE::ServiceNode *>;
//%template(CONTAINmap)    std::map<std::string, YACS::ENGINE::Container *>;
REFCOUNT_TEMPLATE(CONTAINmap,YACS::ENGINE::Container)
%template(strvec)        std::vector<std::string>;
%template(linksvec)      std::vector< std::pair<YACS::ENGINE::OutPort *,YACS::ENGINE::InPort *> >;
%template(linkvec)       std::vector< std::pair<YACS::ENGINE::InPort *,YACS::ENGINE::OutPort *> >;
%template(instreamlist)  std::list<YACS::ENGINE::InputDataStreamPort *>;
%template(outstreamlist) std::list<YACS::ENGINE::OutputDataStreamPort *>;

%template()              std::pair<std::string, YACS::ENGINE::CatalogLoader *>;
%template(loadermap)     std::map<std::string,YACS::ENGINE::CatalogLoader *>;
%template()              std::pair<std::string, YACS::ENGINE::ComposedNode *>;
%template(composedmap)   std::map<std::string,YACS::ENGINE::ComposedNode *>;
%template()              std::pair<std::string, YACS::ENGINE::ComponentDefinition *>;
%template(compomap)      std::map<std::string, YACS::ENGINE::ComponentDefinition *>;
%template()              std::pair<std::string, std::string>;
%template(propmap)       std::map<std::string, std::string>;

REFCOUNT_TEMPLATE(CompoInstmap,YACS::ENGINE::ComponentInstance)
/*
 * End of Template section
 */


/*
 * Ownership section
 */
//Take ownership : it is not the default (constructor) as it is a factory
%newobject *::createProc;
%newobject *::createScriptNode;
%newobject *::createFuncNode;
%newobject *::createRefNode;
%newobject *::createCompoNode;
%newobject *::createSInlineNode;
%newobject *::createInDataNode;
%newobject *::createOutDataNode;
%newobject *::createBloc;
%newobject *::createForLoop;
%newobject *::createForEachLoop;
%newobject *::createWhileLoop;
%newobject *::createSwitch;
%newobject *::loadCatalog;
%newobject *::createComponentInstance;
%newobject *::createContainer;


%newobject *::createInputPort;
%newobject *::createOutputPort;
%newobject *::createInputDataStreamPort;
%newobject *::createOutputDataStreamPort;
%newobject *::clone;
%newobject *::New;

//Take ownership : transfer it from C++ (has to be completed)
%newobject YACS::ENGINE::Loop::edRemoveNode;
%newobject YACS::ENGINE::Switch::edReleaseDefaultNode;
%newobject YACS::ENGINE::Switch::edReleaseCase;
%newobject YACS::ENGINE::DynParaLoop::edRemoveNode;
%newobject YACS::ENGINE::DynParaLoop::edRemoveInitNode;
//No other way to do ??
%feature("pythonappend") YACS::ENGINE::Bloc::edRemoveChild(Node *node)%{
        args[1].thisown=1
%}

%newobject *::createSequenceTc;
%newobject *::createInterfaceTc;
%newobject *::createStructTc;
%newobject *::createType;

%newobject YACS::ENGINE::TypeCode::interfaceTc;
%newobject YACS::ENGINE::TypeCode::sequenceTc;
%newobject YACS::ENGINE::TypeCode::structTc;

/*
 * End of ownership section
 */


%include <define.hxx>
%include <YACSBasesExport.hxx>
%include <Exception.hxx>
%include <YACSlibEngineExport.hxx>
%include <ConversionException.hxx>
%include <Runtime.hxx>
%include <PropertyInterface.hxx>

PYEXCEPTION(YACS::ENGINE::Executor::RunW)
PYEXCEPTION(YACS::ENGINE::Executor::RunB)
PYEXCEPTION(YACS::ENGINE::Executor::setExecMode)
PYEXCEPTION(YACS::ENGINE::Executor::resumeCurrentBreakPoint)
PYEXCEPTION(YACS::ENGINE::Executor::stopExecution)
PYEXCEPTION(YACS::ENGINE::Executor::waitPause)
PYEXCEPTION(YACS::ENGINE::ComponentInstance::load)

%include <Executor.hxx>

EXCEPTION(YACS::ENGINE::ExecutorSwig::RunPy)
EXCEPTION(YACS::ENGINE::ExecutorSwig::waitPause)
%include <ExecutorSwig.hxx>

%include <RefCounter.hxx>

%include <Any.hxx>

%ignore YACS::ENGINE::TypeCode::getOrBuildAnyFromZippedData;
%include <TypeCode.hxx>

%include <Scheduler.hxx>
%include <Task.hxx>
%include <Dispatcher.hxx>
%include <DeploymentTree.hxx>
%include <Port.hxx>
%extend YACS::ENGINE::Port
{
  int __cmp__(Port* other)
    {
      if(self==other)
        return 0;
      else 
        return 1;
    }
  long ptr()
    {
      return (long)self;
    }
}
%include <DataPort.hxx>
%include <InPort.hxx>
%include <OutPort.hxx>
%include <InGate.hxx>
%include <OutGate.hxx>
%include <DataFlowPort.hxx>
%include <DataStreamPort.hxx>

%include <LinkInfo.hxx>
%include <Logger.hxx>

%include <ComponentInstance.hxx>
%include <Container.hxx>
%include <InputPort.hxx>
%extend YACS::ENGINE::InputPort
{
  void edInitXML(const char * s)
    {
      self->edInit("XML",s);
    }
  void edInitPy(PyObject* ob)
    {
      self->edInit("Python",ob);
    }
}

%template(edInitInt)       YACS::ENGINE::InputPort::edInit<int>;
%template(edInitBool)      YACS::ENGINE::InputPort::edInit<bool>;
%template(edInitString)    YACS::ENGINE::InputPort::edInit<std::string>;
%template(edInitDbl)       YACS::ENGINE::InputPort::edInit<double>;

%include <AnyInputPort.hxx>
%include <ConditionInputPort.hxx>
%include <OutputPort.hxx>
%include <AnyOutputPort.hxx>
%include <InputDataStreamPort.hxx>
%include <OutputDataStreamPort.hxx>
%include <DataPort.hxx>

%include <Node.hxx>
%extend YACS::ENGINE::Node 
{
  int __cmp__(Node* other)
    {
      if(self==other)
        return 0;
      else 
        return 1;
    }
  long ptr()
    {
          return (long)self;
    }
}

%include <ElementaryNode.hxx>
%include <InlineNode.hxx>
%include <ServiceNode.hxx>
%include <ServiceInlineNode.hxx>
%include <ServerNode.hxx>
%include <DataNode.hxx>

%include <ComposedNode.hxx>
%include <StaticDefinedComposedNode.hxx>
%include <Bloc.hxx>
%include <Proc.hxx>

%include <Loop.hxx>
%include <ForLoop.hxx>
%include <DynParaLoop.hxx>
%include <WhileLoop.hxx>
%include <ForEachLoop.hxx>
%include <OptimizerLoop.hxx>
%include <Switch.hxx>
%include <Visitor.hxx>
%include <VisitorSaveSchema.hxx>
%include <ComponentDefinition.hxx>
%include <Catalog.hxx>
%include <Pool.hxx>

%include <AlternateThread.hxx>
%include <AlternateThreadPT.hxx>

// Ignore class OptimizerAlgASync to avoid confusion with class
// OptimizerAlgASync in module SALOMERuntime
%ignore YACS::ENGINE::OptimizerAlgASync;
%include <OptimizerAlg.hxx>

%extend YACS::ENGINE::ConditionInputPort
{
  bool getPyObj()
  {
    return self->getValue();
  }
}

%extend YACS::ENGINE::AnyInputPort
{
  PyObject * getPyObj()
  {
    return (PyObject *)getRuntime()->convertNeutral(self->edGetType(),self->getValue());
  }
}

%extend YACS::ENGINE::AnyOutputPort
{
  PyObject * getPyObj()
  {
    return (PyObject *)getRuntime()->convertNeutral(self->edGetType(),self->getValue());
  }
}

%newobject YACS::ENGINE::SequenceAny::__getitem__;
%extend YACS::ENGINE::SequenceAny
{
  Any* __getitem__(int i)
  {
    if (i < self->size())
      {
        AnyPtr a=(*self)[i];
        a->incrRef();
        return a;
      }
    else
      throw std::length_error("index too large");
  }
}

%newobject YACS::ENGINE::StructAny::__getitem__;
%extend YACS::ENGINE::StructAny
{
  Any* __getitem__(const char * key)
  {
    AnyPtr a=(*self)[key];
    a->incrRef();
    return a;
  }
}
